%YAML 1.1
%TAG !u! tag:unity3d.com,2011:
--- !u!74 &7400000
AnimationClip:
  m_ObjectHideFlags: 0
  m_PrefabParentObject: {fileID: 0}
  m_PrefabInternal: {fileID: 0}
  m_Name: AH_anim
  serializedVersion: 6
  m_Legacy: 1
  m_Compressed: 0
  m_UseHighQualityCurve: 1
  m_RotationCurves:
  - curve:
      serializedVersion: 2
      m_Curve:
      - time: 5.0333333
        value: {x: 0, y: 0.5305961, z: 0, w: 0.8476248}
        inSlope: {x: -0.021546736, y: -0.0032078791, z: -0.022663442, w: 0.0020026893}
        outSlope: {x: -0.021546736, y: -0.0032078791, z: -0.022663442, w: 0.0020026893}
        tangentMode: -559038737
      - time: 5.850011
        value: {x: -0.01948552, y: 0.5271209, z: -0.020756347, w: 0.8493133}
        inSlope: {x: -0.02595729, y: -0.005346465, z: -0.02798345, w: 0.0020366635}
        outSlope: {x: -0.02595729, y: -0.005346465, z: -0.02798345, w: 0.0020366635}
        tangentMode: -559038737
      - time: 6.6666884
        value: {x: -0.04195945, y: 0.52186126, z: -0.04529712, w: 0.8507928}
        inSlope: {x: -0.028813135, y: -0.007527966, z: -0.031859525, w: 0.0015002289}
        outSlope: {x: -0.028813135, y: -0.007527966, z: -0.031859525, w: 0.0015002289}
        tangentMode: -559038737
      - time: 7.483366
        value: {x: -0.06611823, y: 0.51487416, z: -0.07236629, w: 0.85164315}
        inSlope: {x: -0.030092642, y: -0.009534232, z: -0.034163512, w: 0.00052391784}
        outSlope: {x: -0.030092642, y: -0.009534232, z: -0.034163512, w: 0.00052391784}
        tangentMode: -559038737
      - time: 8.3000345
        value: {x: -0.090703115, y: 0.5064029, z: -0.10065193, w: 0.85158575}
        inSlope: {x: -0.029874006, y: -0.011117032, z: -0.03482857, w: -0.000686656}
        outSlope: {x: -0.029874006, y: -0.011117032, z: -0.03482857, w: -0.000686656}
        tangentMode: -559038737
      - time: 9.133355
        value: {x: -0.115006976, y: 0.49670112, z: -0.12935406, w: 0.8504875}
        inSlope: {x: -0.028229116, y: -0.012021844, z: -0.03375969, w: -0.0019312201}
        outSlope: {x: -0.028229116, y: -0.012021844, z: -0.03375969, w: -0.0019312201}
        tangentMode: -559038737
      - time: 9.966676
        value: {x: -0.13739352, y: 0.4866306, z: -0.15641807, w: 0.8484381}
        inSlope: {x: -0.025298536, y: -0.011965517, z: -0.03089326, w: -0.0029325932}
        outSlope: {x: -0.025298536, y: -0.011965517, z: -0.03089326, w: -0.0029325932}
        tangentMode: -559038737
      - time: 10.799996
        value: {x: -0.1568567, y: 0.47708547, z: -0.1803418, w: 0.84573174}
        inSlope: {x: -0.021236267, y: -0.010737047, z: -0.02622391, w: -0.003476196}
        outSlope: {x: -0.021236267, y: -0.010737047, z: -0.02622391, w: -0.003476196}
        tangentMode: -559038737
      - time: 11.633317
        value: {x: -0.172506, y: 0.46909565, z: -0.19962841, w: 0.8428164}
        inSlope: {x: -0.016159661, y: -0.008219307, z: -0.019769076, w: -0.0034136102}
        outSlope: {x: -0.016159661, y: -0.008219307, z: -0.019769076, w: -0.0034136102}
        tangentMode: -559038737
      - time: 12.466638
        value: {x: -0.18352126, y: 0.4637533, z: -0.21280114, w: 0.8402193}
        inSlope: {x: -0.010113424, y: -0.004386373, z: -0.011556027, w: -0.002714437}
        outSlope: {x: -0.010113424, y: -0.004386373, z: -0.011556027, w: -0.002714437}
        tangentMode: -559038737
      - time: 13.299958
        value: {x: -0.18907584, y: 0.46212676, z: -0.21840915, w: 0.83844304}
        inSlope: {x: -0.0030322836, y: 0.0006732447, z: -0.0016187378, w: -0.0014734494}
        outSlope: {x: -0.0030322836, y: 0.0006732447, z: -0.0016187378, w: -0.0014734494}
        tangentMode: -559038737
      - time: 14.133279
        value: {x: -0.18823059, y: 0.46515498, z: -0.21502759, w: 0.83783245}
        inSlope: {x: 0.0052934205, y: 0.006732447, z: 0.010012839, w: 0.000019669833}
        outSlope: {x: 0.0052934205, y: 0.006732447, z: 0.010012839, w: 0.000019669833}
        tangentMode: -559038737
      - time: 14.966599
        value: {x: -0.1795921, y: 0.4834458, z: -0.19649102, w: 0.8339174}
        inSlope: {x: 0.015966987, y: 0.040236432, z: 0.035779428, w: -0.011454996}
        outSlope: {x: 0.015966987, y: 0.040236432, z: 0.035779428, w: -0.011454996}
        tangentMode: -559038737
      - time: 15.79992
        value: {x: -0.16068493, y: 0.52721506, z: -0.15846586, w: 0.81921494}
        inSlope: {x: 0.029898146, y: 0.06141101, z: 0.053420134, w: -0.02332127}
        outSlope: {x: 0.029898146, y: 0.06141101, z: 0.053420134, w: -0.02332127}
        tangentMode: -559038737
      - time: 16.633242
        value: {x: -0.12946609, y: 0.5802215, z: -0.11076607, w: 0.7964373}
        inSlope: {x: 0.044798493, y: 0.06259298, z: 0.059238385, w: -0.030076962}
        outSlope: {x: 0.044798493, y: 0.06259298, z: 0.059238385, w: -0.030076962}
        tangentMode: -559038737
      - time: 17.466562
        value: {x: -0.08718149, y: 0.6265762, z: -0.062269162, w: 0.7719613}
        inSlope: {x: 0.05553487, y: 0.045964822, z: 0.05600661, w: -0.026514934}
        outSlope: {x: 0.05553487, y: 0.045964822, z: 0.05600661, w: -0.026514934}
        tangentMode: -559038737
      - time: 18.299883
        value: {x: -0.039453477, y: 0.6528096, z: -0.018626764, w: 0.75626457}
        inSlope: {x: 0.057184562, y: 0.014813173, z: 0.048425846, w: -0.00861181}
        outSlope: {x: 0.057184562, y: 0.014813173, z: 0.048425846, w: -0.00861181}
        tangentMode: -559038737
      - time: 19.133204
        value: {x: 0.004781461, y: 0.64773494, z: 0.01842238, w: 0.7616279}
        inSlope: {x: 0.046875976, y: -0.029220432, z: 0.040649444, w: 0.023569824}
        outSlope: {x: 0.046875976, y: -0.029220432, z: 0.040649444, w: 0.023569824}
        tangentMode: -559038737
      - time: 19.966524
        value: {x: 0.035217054, y: 0.59972894, z: 0.049180243, w: 0.7979138}
        inSlope: {x: 0.024228092, y: -0.08925454, z: 0.03284873, w: 0.06398954}
        outSlope: {x: 0.024228092, y: -0.08925454, z: 0.03284873, w: 0.06398954}
        tangentMode: -559038737
      - time: 20.799845
        value: {x: 0.04249431, y: 0.47290245, z: 0.07453829, w: 0.8769274}
        inSlope: {x: -0.007368588, y: -0.23369104, z: 0.029697202, w: 0.12384842}
        outSlope: {x: -0.007368588, y: -0.23369104, z: 0.029697202, w: 0.12384842}
        tangentMode: -559038737
      - time: 21.633165
        value: {x: 0.024658374, y: 0.22256431, z: 0.09556298, w: 0.96990967}
        inSlope: {x: -0.032968763, y: -0.35206366, z: 0.018204432, w: 0.07982734}
        outSlope: {x: -0.032968763, y: -0.35206366, z: 0.018204432, w: 0.07982734}
        tangentMode: -559038737
      - time: 22.466486
        value: {x: -0.006571851, y: -0.08059155, z: 0.10224233, w: 0.9914677}
        inSlope: {x: -0.037967138, y: -0.35283723, z: -0.00220548, w: -0.028700074}
        outSlope: {x: -0.037967138, y: -0.35283723, z: -0.00220548, w: -0.028700074}
        tangentMode: -559038737
      - time: 23.299807
        value: {x: -0.032814074, y: -0.33053783, z: 0.09453969, w: 0.9384723}
        inSlope: {x: -0.022552917, y: -0.22995824, z: -0.013500435, w: -0.080415644}
        outSlope: {x: -0.022552917, y: -0.22995824, z: -0.013500435, w: -0.080415644}
        tangentMode: -559038737
      - time: 24.133127
        value: {x: -0.04199185, y: -0.4437137, z: 0.08434706, w: 0.8912016}
        inSlope: {x: 0.00048515195, y: -0.044597767, z: -0.011383468, w: -0.021102155}
        outSlope: {x: 0.00048515195, y: -0.044597767, z: -0.011383468, w: -0.021102155}
        tangentMode: -559038737
      - time: 24.966448
        value: {x: -0.034593336, y: -0.42852923, z: 0.07280562, w: 0.8999251}
        inSlope: {x: 0.015310617, y: 0.07356428, z: -0.01640777, w: 0.036945313}
        outSlope: {x: 0.015310617, y: 0.07356428, z: -0.01640777, w: 0.036945313}
        tangentMode: -559038737
      - time: 25.799768
        value: {x: -0.019829731, y: -0.33235607, z: 0.056670103, w: 0.9412411}
        inSlope: {x: 0.018213706, y: 0.1503419, z: -0.022322465, w: 0.05481267}
        outSlope: {x: 0.018213706, y: 0.1503419, z: -0.022322465, w: 0.05481267}
        tangentMode: -559038737
      - time: 26.63309
        value: {x: -0.006824037, y: -0.1910374, z: 0.036307305, w: 0.9808873}
        inSlope: {x: 0.0119573865, y: 0.17993113, z: -0.025688913, w: 0.03607805}
        outSlope: {x: 0.0119573865, y: 0.17993113, z: -0.025688913, w: 0.03607805}
        tangentMode: -559038737
      - time: 27.46641
        value: {x: -0.0005461689, y: -0.048465554, z: 0.01575589, w: 0.99870044}
        inSlope: {x: 0.0033799806, y: 0.15234631, z: -0.022375442, w: 0.007749914}
        outSlope: {x: 0.0033799806, y: 0.15234631, z: -0.022375442, w: 0.007749914}
        tangentMode: -559038737
      - time: 28.29973
        value: {x: 0.00007537779, y: 0.046790376, z: 0.0009586886, w: 0.9989042}
        inSlope: {x: -0.00085379556, y: 0.06700909, z: -0.012131738, w: -0.0031275034}
        outSlope: {x: -0.00085379556, y: 0.06700909, z: -0.012131738, w: -0.0031275034}
        tangentMode: -559038737
      - time: 29.13305
        value: {x: -0.0008893505, y: 0.08478365, z: -0.0064370963, w: 0.9963782}
        inSlope: {x: -0.0012965046, y: 0.0329197, z: -0.006508815, w: -0.0028431849}
        outSlope: {x: -0.0012965046, y: 0.0329197, z: -0.006508815, w: -0.0028431849}
        tangentMode: -559038737
      - time: 29.966372
        value: {x: -0.0019003949, y: 0.1033905, z: -0.010191891, w: 0.9945868}
        inSlope: {x: -0.0010711676, y: 0.012550695, z: -0.0026631947, w: -0.0013339723}
        outSlope: {x: -0.0010711676, y: 0.012550695, z: -0.0026631947, w: -0.0013339723}
        tangentMode: -559038737
      - time: 30.799692
        value: {x: -0.0026384445, y: 0.10704047, z: -0.011137559, w: 0.9941887}
        inSlope: {x: -0.0007064725, y: -0.0029929439, z: 0.0002395305, w: 0.0003254463}
        outSlope: {x: -0.0007064725, y: -0.0029929439, z: 0.0002395305, w: 0.0003254463}
        tangentMode: -559038737
      - time: 31.633013
        value: {x: -0.0031153127, y: 0.09972201, z: -0.010044678, w: 0.9949598}
        inSlope: {x: -0.00047018303, y: -0.013782071, z: 0.002233923, w: 0.0014019227}
        outSlope: {x: -0.00047018303, y: -0.013782071, z: 0.002233923, w: 0.0014019227}
        tangentMode: -559038737
      - time: 32.466335
        value: {x: -0.0034781971, y: 0.08538565, z: -0.007661711, w: 0.99631244}
        inSlope: {x: -0.0004318492, y: -0.019835014, z: 0.0033371937, w: 0.0017255808}
        outSlope: {x: -0.0004318492, y: -0.019835014, z: 0.0033371937, w: 0.0017255808}
        tangentMode: -559038737
      - time: 33.299656
        value: {x: -0.0038750102, y: 0.067984894, z: -0.0047289673, w: 0.9976677}
        inSlope: {x: -0.0005356048, y: -0.021131882, z: 0.0035538136, w: 0.0014537794}
        outSlope: {x: -0.0005356048, y: -0.021131882, z: 0.0035538136, w: 0.0014537794}
        tangentMode: -559038737
      - time: 34.132977
        value: {x: -0.0043796874, y: 0.051493477, z: -0.0019838125, w: 0.99866176}
        inSlope: {x: -0.0006716801, y: -0.017649539, z: 0.0028882525, w: 0.0009155413}
        outSlope: {x: -0.0006716801, y: -0.017649539, z: 0.0028882525, w: 0.0009155413}
        tangentMode: -559038737
      - time: 34.966297
        value: {x: -0.004976895, y: 0.039899543, z: -0.00015717643, w: 0.9991913}
        inSlope: {x: -0.0007474257, y: -0.009377928, z: 0.0013516662, w: 0.0003701505}
        outSlope: {x: -0.0007474257, y: -0.009377928, z: 0.0013516662, w: 0.0003701505}
        tangentMode: -559038737
      - time: 35.46667
        value: {x: -0.005353884, y: 0.0369528, z: 0.00019797905, w: 0.9993026}
        inSlope: {x: -0.00075624045, y: -0.0022507482, z: 0.00004188314, w: 0.000080415084}
        outSlope: {x: -0.00075624045, y: -0.0022507482, z: 0.00004188314, w: 0.000080415084}
        tangentMode: -559038737
      m_PreInfinity: 2
      m_PostInfinity: 2
      m_RotationOrder: 4
    path: 
  m_CompressedRotationCurves: []
  m_EulerCurves: []
  m_PositionCurves:
  - curve:
      serializedVersion: 2
      m_Curve:
      - time: 5.0333333
        value: {x: 1067.3965, y: 217.5192, z: 1303.8428}
        inSlope: {x: -43.187466, y: -0.6591236, z: -20.679634}
        outSlope: {x: -43.187466, y: -0.6591236, z: -20.679634}
        tangentMode: -559038737
      - time: 14.283334
        value: {x: 667.9124, y: 211.4223, z: 1112.5562}
        inSlope: {x: -40.138218, y: -4.894232, z: -22.495562}
        outSlope: {x: -40.138218, y: -4.894232, z: -22.495562}
        tangentMode: -559038737
      - time: 20.216667
        value: {x: 447.8512, y: 157.25488, z: 968.308}
        inSlope: {x: -21.62604, y: -4.4697576, z: -13.5260515}
        outSlope: {x: -21.62604, y: -4.4697576, z: -13.5260515}
        tangentMode: -559038737
      - time: 23.95
        value: {x: 424.84225, y: 157.96356, z: 958.07635}
        inSlope: {x: -4.5973268, y: -0.11346296, z: -2.6077628}
        outSlope: {x: -4.5973268, y: -0.11346296, z: -2.6077628}
        tangentMode: -559038737
      - time: 28.383335
        value: {x: 411.4024, y: 156.11597, z: 947.10425}
        inSlope: {x: -5.589575, y: 1.837164, z: -19.415195}
        outSlope: {x: -5.589575, y: 1.837164, z: -19.415195}
        tangentMode: -559038737
      - time: 35.46667
        value: {x: 353.6902, y: 185.09445, z: 689.5862}
        inSlope: {x: -8.147605, y: 4.0910788, z: -36.35548}
        outSlope: {x: -8.147605, y: 4.0910788, z: -36.35548}
        tangentMode: -559038737
      m_PreInfinity: 2
      m_PostInfinity: 2
      m_RotationOrder: 4
    path: 
  m_ScaleCurves:
  - curve:
      serializedVersion: 2
      m_Curve:
      - time: 5.0333333
        value: {x: 1, y: 1, z: 1}
        inSlope: {x: 0, y: 0, z: 0}
        outSlope: {x: 0, y: 0, z: 0}
        tangentMode: -559038737
      - time: 14.283334
        value: {x: 1, y: 1, z: 1}
        inSlope: {x: 0, y: 0, z: 0}
        outSlope: {x: 0, y: 0, z: 0}
        tangentMode: -559038737
      - time: 20.216667
        value: {x: 1, y: 1, z: 1}
        inSlope: {x: 0, y: 0, z: 0}
        outSlope: {x: 0, y: 0, z: 0}
        tangentMode: -559038737
      - time: 23.95
        value: {x: 1, y: 1, z: 1}
        inSlope: {x: 0, y: 0, z: 0}
        outSlope: {x: 0, y: 0, z: 0}
        tangentMode: -559038737
      - time: 28.383339
        value: {x: 1, y: 1, z: 1}
        inSlope: {x: 0, y: 0, z: 0}
        outSlope: {x: 0, y: 0, z: 0}
        tangentMode: -559038737
      m_PreInfinity: 2
      m_PostInfinity: 2
      m_RotationOrder: 4
    path: 
  m_FloatCurves: []
  m_PPtrCurves: []
  m_SampleRate: 60
  m_WrapMode: 0
  m_Bounds:
    m_Center: {x: 0, y: 0, z: 0}
    m_Extent: {x: 0, y: 0, z: 0}
  m_ClipBindingConstant:
    genericBindings: []
    pptrCurveMapping: []
  m_AnimationClipSettings:
    serializedVersion: 2
    m_AdditiveReferencePoseClip: {fileID: 0}
    m_AdditiveReferencePoseTime: 0
    m_StartTime: 0
    m_StopTime: 1
    m_OrientationOffsetY: 0
    m_Level: 0
    m_CycleOffset: 0
    m_HasAdditiveReferencePose: 0
    m_LoopTime: 0
    m_LoopBlend: 0
    m_LoopBlendOrientation: 0
    m_LoopBlendPositionY: 0
    m_LoopBlendPositionXZ: 0
    m_KeepOriginalOrientation: 0
    m_KeepOriginalPositionY: 1
    m_KeepOriginalPositionXZ: 0
    m_HeightFromFeet: 0
    m_Mirror: 0
  m_EditorCurves:
  - curve:
      serializedVersion: 2
      m_Curve:
      - time: 5.0333333
        value: 1067.3965
        inSlope: -43.187466
        outSlope: -43.187466
        tangentMode: 10
      - time: 14.283334
        value: 667.9124
        inSlope: -40.138218
        outSlope: -40.138218
        tangentMode: 10
      - time: 20.216667
        value: 447.8512
        inSlope: -21.62604
        outSlope: -21.62604
        tangentMode: 10
      - time: 23.95
        value: 424.84225
        inSlope: -4.5973268
        outSlope: -4.5973268
        tangentMode: 10
      - time: 28.383335
        value: 411.4024
        inSlope: -5.589575
        outSlope: -5.589575
        tangentMode: 10
      - time: 35.46667
        value: 353.6902
        inSlope: -8.147605
        outSlope: -8.147605
        tangentMode: 10
      m_PreInfinity: 2
      m_PostInfinity: 2
      m_RotationOrder: 4
    attribute: m_LocalPosition.x
    path: 
    classID: 4
    script: {fileID: 0}
  - curve:
      serializedVersion: 2
      m_Curve:
      - time: 5.0333333
        value: 217.5192
        inSlope: -0.6591236
        outSlope: -0.6591236
        tangentMode: 10
      - time: 14.283334
        value: 211.4223
        inSlope: -4.894232
        outSlope: -4.894232
        tangentMode: 10
      - time: 20.216667
        value: 157.25488
        inSlope: -4.4697576
        outSlope: -4.4697576
        tangentMode: 10
      - time: 23.95
        value: 157.96356
        inSlope: -0.11346296
        outSlope: -0.11346296
        tangentMode: 10
      - time: 28.383335
        value: 156.11597
        inSlope: 1.837164
        outSlope: 1.837164
        tangentMode: 10
      - time: 35.46667
        value: 185.09445
        inSlope: 4.0910788
        outSlope: 4.0910788
        tangentMode: 10
      m_PreInfinity: 2
      m_PostInfinity: 2
      m_RotationOrder: 4
    attribute: m_LocalPosition.y
    path: 
    classID: 4
    script: {fileID: 0}
  - curve:
      serializedVersion: 2
      m_Curve:
      - time: 5.0333333
        value: 1303.8428
        inSlope: -20.679634
        outSlope: -20.679634
        tangentMode: 10
      - time: 14.283334
        value: 1112.5562
        inSlope: -22.495562
        outSlope: -22.495562
        tangentMode: 10
      - time: 20.216667
        value: 968.308
        inSlope: -13.5260515
        outSlope: -13.5260515
        tangentMode: 10
      - time: 23.95
        value: 958.07635
        inSlope: -2.6077628
        outSlope: -2.6077628
        tangentMode: 10
      - time: 28.383335
        value: 947.10425
        inSlope: -19.415195
        outSlope: -19.415195
        tangentMode: 10
      - time: 35.46667
        value: 689.5862
        inSlope: -36.35548
        outSlope: -36.35548
        tangentMode: 10
      m_PreInfinity: 2
      m_PostInfinity: 2
      m_RotationOrder: 4
    attribute: m_LocalPosition.z
    path: 
    classID: 4
    script: {fileID: 0}
  - curve:
      serializedVersion: 2
      m_Curve:
      - time: 5.0333333
        value: 1
        inSlope: 0
        outSlope: 0
        tangentMode: 10
      - time: 14.283334
        value: 1
        inSlope: 0
        outSlope: 0
        tangentMode: 10
      - time: 20.216667
        value: 1
        inSlope: 0
        outSlope: 0
        tangentMode: 10
      - time: 23.95
        value: 1
        inSlope: 0
        outSlope: 0
        tangentMode: 10
      - time: 28.383339
        value: 1
        inSlope: 0
        outSlope: 0
        tangentMode: 10
      m_PreInfinity: 2
      m_PostInfinity: 2
      m_RotationOrder: 4
    attribute: m_LocalScale.z
    path: 
    classID: 4
    script: {fileID: 0}
  - curve:
      serializedVersion: 2
      m_Curve:
      - time: 5.0333333
        value: 1
        inSlope: 0
        outSlope: 0
        tangentMode: 10
      - time: 14.283334
        value: 1
        inSlope: 0
        outSlope: 0
        tangentMode: 10
      - time: 20.216667
        value: 1
        inSlope: 0
        outSlope: 0
        tangentMode: 10
      - time: 23.95
        value: 1
        inSlope: 0
        outSlope: 0
        tangentMode: 10
      - time: 28.383339
        value: 1
        inSlope: 0
        outSlope: 0
        tangentMode: 10
      m_PreInfinity: 2
      m_PostInfinity: 2
      m_RotationOrder: 4
    attribute: m_LocalScale.y
    path: 
    classID: 4
    script: {fileID: 0}
  - curve:
      serializedVersion: 2
      m_Curve:
      - time: 5.0333333
        value: 1
        inSlope: 0
        outSlope: 0
        tangentMode: 10
      - time: 14.283334
        value: 1
        inSlope: 0
        outSlope: 0
        tangentMode: 10
      - time: 20.216667
        value: 1
        inSlope: 0
        outSlope: 0
        tangentMode: 10
      - time: 23.95
        value: 1
        inSlope: 0
        outSlope: 0
        tangentMode: 10
      - time: 28.383339
        value: 1
        inSlope: 0
        outSlope: 0
        tangentMode: 10
      m_PreInfinity: 2
      m_PostInfinity: 2
      m_RotationOrder: 4
    attribute: m_LocalScale.x
    path: 
    classID: 4
    script: {fileID: 0}
  - curve:
      serializedVersion: 2
      m_Curve:
      - time: 5.0333333
        value: 0
        inSlope: -0.021546736
        outSlope: -0.021546736
        tangentMode: 0
      - time: 5.850011
        value: -0.01948552
        inSlope: -0.02595729
        outSlope: -0.02595729
        tangentMode: 0
      - time: 6.6666884
        value: -0.04195945
        inSlope: -0.028813135
        outSlope: -0.028813135
        tangentMode: 0
      - time: 7.483366
        value: -0.06611823
        inSlope: -0.030092642
        outSlope: -0.030092642
        tangentMode: 0
      - time: 8.3000345
        value: -0.090703115
        inSlope: -0.029874006
        outSlope: -0.029874006
        tangentMode: 0
      - time: 9.133355
        value: -0.115006976
        inSlope: -0.028229116
        outSlope: -0.028229116
        tangentMode: 0
      - time: 9.966676
        value: -0.13739352
        inSlope: -0.025298536
        outSlope: -0.025298536
        tangentMode: 0
      - time: 10.799996
        value: -0.1568567
        inSlope: -0.021236267
        outSlope: -0.021236267
        tangentMode: 0
      - time: 11.633317
        value: -0.172506
        inSlope: -0.016159661
        outSlope: -0.016159661
        tangentMode: 0
      - time: 12.466638
        value: -0.18352126
        inSlope: -0.010113424
        outSlope: -0.010113424
        tangentMode: 0
      - time: 13.299958
        value: -0.18907584
        inSlope: -0.0030322836
        outSlope: -0.0030322836
        tangentMode: 0
      - time: 14.133279
        value: -0.18823059
        inSlope: 0.0052934205
        outSlope: 0.0052934205
        tangentMode: 0
      - time: 14.966599
        value: -0.1795921
        inSlope: 0.015966987
        outSlope: 0.015966987
        tangentMode: 0
      - time: 15.79992
        value: -0.16068493
        inSlope: 0.029898146
        outSlope: 0.029898146
        tangentMode: 0
      - time: 16.633242
        value: -0.12946609
        inSlope: 0.044798493
        outSlope: 0.044798493
        tangentMode: 0
      - time: 17.466562
        value: -0.08718149
        inSlope: 0.05553487
        outSlope: 0.05553487
        tangentMode: 0
      - time: 18.299883
        value: -0.039453477
        inSlope: 0.057184562
        outSlope: 0.057184562
        tangentMode: 0
      - time: 19.133204
        value: 0.004781461
        inSlope: 0.046875976
        outSlope: 0.046875976
        tangentMode: 0
      - time: 19.966524
        value: 0.035217054
        inSlope: 0.024228092
        outSlope: 0.024228092
        tangentMode: 0
      - time: 20.799845
        value: 0.04249431
        inSlope: -0.007368588
        outSlope: -0.007368588
        tangentMode: 0
      - time: 21.633165
        value: 0.024658374
        inSlope: -0.032968763
        outSlope: -0.032968763
        tangentMode: 0
      - time: 22.466486
        value: -0.006571851
        inSlope: -0.037967138
        outSlope: -0.037967138
        tangentMode: 0
      - time: 23.299807
        value: -0.032814074
        inSlope: -0.022552917
        outSlope: -0.022552917
        tangentMode: 0
      - time: 24.133127
        value: -0.04199185
        inSlope: 0.00048515195
        outSlope: 0.00048515195
        tangentMode: 0
      - time: 24.966448
        value: -0.034593336
        inSlope: 0.015310617
        outSlope: 0.015310617
        tangentMode: 0
      - time: 25.799768
        value: -0.019829731
        inSlope: 0.018213706
        outSlope: 0.018213706
        tangentMode: 0
      - time: 26.63309
        value: -0.006824037
        inSlope: 0.0119573865
        outSlope: 0.0119573865
        tangentMode: 0
      - time: 27.46641
        value: -0.0005461689
        inSlope: 0.0033799806
        outSlope: 0.0033799806
        tangentMode: 0
      - time: 28.29973
        value: 0.00007537779
        inSlope: -0.00085379556
        outSlope: -0.00085379556
        tangentMode: 0
      - time: 29.13305
        value: -0.0008893505
        inSlope: -0.0012965046
        outSlope: -0.0012965046
        tangentMode: 0
      - time: 29.966372
        value: -0.0019003949
        inSlope: -0.0010711676
        outSlope: -0.0010711676
        tangentMode: 0
      - time: 30.799692
        value: -0.0026384445
        inSlope: -0.0007064725
        outSlope: -0.0007064725
        tangentMode: 0
      - time: 31.633013
        value: -0.0031153127
        inSlope: -0.00047018303
        outSlope: -0.00047018303
        tangentMode: 0
      - time: 32.466335
        value: -0.0034781971
        inSlope: -0.0004318492
        outSlope: -0.0004318492
        tangentMode: 0
      - time: 33.299656
        value: -0.0038750102
        inSlope: -0.0005356048
        outSlope: -0.0005356048
        tangentMode: 0
      - time: 34.132977
        value: -0.0043796874
        inSlope: -0.0006716801
        outSlope: -0.0006716801
        tangentMode: 0
      - time: 34.966297
        value: -0.004976895
        inSlope: -0.0007474257
        outSlope: -0.0007474257
        tangentMode: 0
      - time: 35.46667
        value: -0.005353884
        inSlope: -0.00075624045
        outSlope: -0.00075624045
        tangentMode: 0
      m_PreInfinity: 2
      m_PostInfinity: 2
      m_RotationOrder: 4
    attribute: m_LocalRotation.x
    path: 
    classID: 4
    script: {fileID: 0}
  - curve:
      serializedVersion: 2
      m_Curve:
      - time: 5.0333333
        value: 0.5305961
        inSlope: -0.0032078791
        outSlope: -0.0032078791
        tangentMode: 0
      - time: 5.850011
        value: 0.5271209
        inSlope: -0.005346465
        outSlope: -0.005346465
        tangentMode: 0
      - time: 6.6666884
        value: 0.52186126
        inSlope: -0.007527966
        outSlope: -0.007527966
        tangentMode: 0
      - time: 7.483366
        value: 0.51487416
        inSlope: -0.009534232
        outSlope: -0.009534232
        tangentMode: 0
      - time: 8.3000345
        value: 0.5064029
        inSlope: -0.011117032
        outSlope: -0.011117032
        tangentMode: 0
      - time: 9.133355
        value: 0.49670112
        inSlope: -0.012021844
        outSlope: -0.012021844
        tangentMode: 0
      - time: 9.966676
        value: 0.4866306
        inSlope: -0.011965517
        outSlope: -0.011965517
        tangentMode: 0
      - time: 10.799996
        value: 0.47708547
        inSlope: -0.010737047
        outSlope: -0.010737047
        tangentMode: 0
      - time: 11.633317
        value: 0.46909565
        inSlope: -0.008219307
        outSlope: -0.008219307
        tangentMode: 0
      - time: 12.466638
        value: 0.4637533
        inSlope: -0.004386373
        outSlope: -0.004386373
        tangentMode: 0
      - time: 13.299958
        value: 0.46212676
        inSlope: 0.0006732447
        outSlope: 0.0006732447
        tangentMode: 0
      - time: 14.133279
        value: 0.46515498
        inSlope: 0.006732447
        outSlope: 0.006732447
        tangentMode: 0
      - time: 14.966599
        value: 0.4834458
        inSlope: 0.040236432
        outSlope: 0.040236432
        tangentMode: 0
      - time: 15.79992
        value: 0.52721506
        inSlope: 0.06141101
        outSlope: 0.06141101
        tangentMode: 0
      - time: 16.633242
        value: 0.5802215
        inSlope: 0.06259298
        outSlope: 0.06259298
        tangentMode: 0
      - time: 17.466562
        value: 0.6265762
        inSlope: 0.045964822
        outSlope: 0.045964822
        tangentMode: 0
      - time: 18.299883
        value: 0.6528096
        inSlope: 0.014813173
        outSlope: 0.014813173
        tangentMode: 0
      - time: 19.133204
        value: 0.64773494
        inSlope: -0.029220432
        outSlope: -0.029220432
        tangentMode: 0
      - time: 19.966524
        value: 0.59972894
        inSlope: -0.08925454
        outSlope: -0.08925454
        tangentMode: 0
      - time: 20.799845
        value: 0.47290245
        inSlope: -0.23369104
        outSlope: -0.23369104
        tangentMode: 0
      - time: 21.633165
        value: 0.22256431
        inSlope: -0.35206366
        outSlope: -0.35206366
        tangentMode: 0
      - time: 22.466486
        value: -0.08059155
        inSlope: -0.35283723
        outSlope: -0.35283723
        tangentMode: 0
      - time: 23.299807
        value: -0.33053783
        inSlope: -0.22995824
        outSlope: -0.22995824
        tangentMode: 0
      - time: 24.133127
        value: -0.4437137
        inSlope: -0.044597767
        outSlope: -0.044597767
        tangentMode: 0
      - time: 24.966448
        value: -0.42852923
        inSlope: 0.07356428
        outSlope: 0.07356428
        tangentMode: 0
      - time: 25.799768
        value: -0.33235607
        inSlope: 0.1503419
        outSlope: 0.1503419
        tangentMode: 0
      - time: 26.63309
        value: -0.1910374
        inSlope: 0.17993113
        outSlope: 0.17993113
        tangentMode: 0
      - time: 27.46641
        value: -0.048465554
        inSlope: 0.15234631
        outSlope: 0.15234631
        tangentMode: 0
      - time: 28.29973
        value: 0.046790376
        inSlope: 0.06700909
        outSlope: 0.06700909
        tangentMode: 0
      - time: 29.13305
        value: 0.08478365
        inSlope: 0.0329197
        outSlope: 0.0329197
        tangentMode: 0
      - time: 29.966372
        value: 0.1033905
        inSlope: 0.012550695
        outSlope: 0.012550695
        tangentMode: 0
      - time: 30.799692
        value: 0.10704047
        inSlope: -0.0029929439
        outSlope: -0.0029929439
        tangentMode: 0
      - time: 31.633013
        value: 0.09972201
        inSlope: -0.013782071
        outSlope: -0.013782071
        tangentMode: 0
      - time: 32.466335
        value: 0.08538565
        inSlope: -0.019835014
        outSlope: -0.019835014
        tangentMode: 0
      - time: 33.299656
        value: 0.067984894
        inSlope: -0.021131882
        outSlope: -0.021131882
        tangentMode: 0
      - time: 34.132977
        value: 0.051493477
        inSlope: -0.017649539
        outSlope: -0.017649539
        tangentMode: 0
      - time: 34.966297
        value: 0.039899543
        inSlope: -0.009377928
        outSlope: -0.009377928
        tangentMode: 0
      - time: 35.46667
        value: 0.0369528
        inSlope: -0.0022507482
        outSlope: -0.0022507482
        tangentMode: 0
      m_PreInfinity: 2
      m_PostInfinity: 2
      m_RotationOrder: 4
    attribute: m_LocalRotation.y
    path: 
    classID: 4
    script: {fileID: 0}
  - curve:
      serializedVersion: 2
      m_Curve:
      - time: 5.0333333
        value: 0
        inSlope: -0.022663442
        outSlope: -0.022663442
        tangentMode: 0
      - time: 5.850011
        value: -0.020756347
        inSlope: -0.02798345
        outSlope: -0.02798345
        tangentMode: 0
      - time: 6.6666884
        value: -0.04529712
        inSlope: -0.031859525
        outSlope: -0.031859525
        tangentMode: 0
      - time: 7.483366
        value: -0.07236629
        inSlope: -0.034163512
        outSlope: -0.034163512
        tangentMode: 0
      - time: 8.3000345
        value: -0.10065193
        inSlope: -0.03482857
        outSlope: -0.03482857
        tangentMode: 0
      - time: 9.133355
        value: -0.12935406
        inSlope: -0.03375969
        outSlope: -0.03375969
        tangentMode: 0
      - time: 9.966676
        value: -0.15641807
        inSlope: -0.03089326
        outSlope: -0.03089326
        tangentMode: 0
      - time: 10.799996
        value: -0.1803418
        inSlope: -0.02622391
        outSlope: -0.02622391
        tangentMode: 0
      - time: 11.633317
        value: -0.19962841
        inSlope: -0.019769076
        outSlope: -0.019769076
        tangentMode: 0
      - time: 12.466638
        value: -0.21280114
        inSlope: -0.011556027
        outSlope: -0.011556027
        tangentMode: 0
      - time: 13.299958
        value: -0.21840915
        inSlope: -0.0016187378
        outSlope: -0.0016187378
        tangentMode: 0
      - time: 14.133279
        value: -0.21502759
        inSlope: 0.010012839
        outSlope: 0.010012839
        tangentMode: 0
      - time: 14.966599
        value: -0.19649102
        inSlope: 0.035779428
        outSlope: 0.035779428
        tangentMode: 0
      - time: 15.79992
        value: -0.15846586
        inSlope: 0.053420134
        outSlope: 0.053420134
        tangentMode: 0
      - time: 16.633242
        value: -0.11076607
        inSlope: 0.059238385
        outSlope: 0.059238385
        tangentMode: 0
      - time: 17.466562
        value: -0.062269162
        inSlope: 0.05600661
        outSlope: 0.05600661
        tangentMode: 0
      - time: 18.299883
        value: -0.018626764
        inSlope: 0.048425846
        outSlope: 0.048425846
        tangentMode: 0
      - time: 19.133204
        value: 0.01842238
        inSlope: 0.040649444
        outSlope: 0.040649444
        tangentMode: 0
      - time: 19.966524
        value: 0.049180243
        inSlope: 0.03284873
        outSlope: 0.03284873
        tangentMode: 0
      - time: 20.799845
        value: 0.07453829
        inSlope: 0.029697202
        outSlope: 0.029697202
        tangentMode: 0
      - time: 21.633165
        value: 0.09556298
        inSlope: 0.018204432
        outSlope: 0.018204432
        tangentMode: 0
      - time: 22.466486
        value: 0.10224233
        inSlope: -0.00220548
        outSlope: -0.00220548
        tangentMode: 0
      - time: 23.299807
        value: 0.09453969
        inSlope: -0.013500435
        outSlope: -0.013500435
        tangentMode: 0
      - time: 24.133127
        value: 0.08434706
        inSlope: -0.011383468
        outSlope: -0.011383468
        tangentMode: 0
      - time: 24.966448
        value: 0.07280562
        inSlope: -0.01640777
        outSlope: -0.01640777
        tangentMode: 0
      - time: 25.799768
        value: 0.056670103
        inSlope: -0.022322465
        outSlope: -0.022322465
        tangentMode: 0
      - time: 26.63309
        value: 0.036307305
        inSlope: -0.025688913
        outSlope: -0.025688913
        tangentMode: 0
      - time: 27.46641
        value: 0.01575589
        inSlope: -0.022375442
        outSlope: -0.022375442
        tangentMode: 0
      - time: 28.29973
        value: 0.0009586886
        inSlope: -0.012131738
        outSlope: -0.012131738
        tangentMode: 0
      - time: 29.13305
        value: -0.0064370963
        inSlope: -0.006508815
        outSlope: -0.006508815
        tangentMode: 0
      - time: 29.966372
        value: -0.010191891
        inSlope: -0.0026631947
        outSlope: -0.0026631947
        tangentMode: 0
      - time: 30.799692
        value: -0.011137559
        inSlope: 0.0002395305
        outSlope: 0.0002395305
        tangentMode: 0
      - time: 31.633013
        value: -0.010044678
        inSlope: 0.002233923
        outSlope: 0.002233923
        tangentMode: 0
      - time: 32.466335
        value: -0.007661711
        inSlope: 0.0033371937
        outSlope: 0.0033371937
        tangentMode: 0
      - time: 33.299656
        value: -0.0047289673
        inSlope: 0.0035538136
        outSlope: 0.0035538136
        tangentMode: 0
      - time: 34.132977
        value: -0.0019838125
        inSlope: 0.0028882525
        outSlope: 0.0028882525
        tangentMode: 0
      - time: 34.966297
        value: -0.00015717643
        inSlope: 0.0013516662
        outSlope: 0.0013516662
        tangentMode: 0
      - time: 35.46667
        value: 0.00019797905
        inSlope: 0.00004188314
        outSlope: 0.00004188314
        tangentMode: 0
      m_PreInfinity: 2
      m_PostInfinity: 2
      m_RotationOrder: 4
    attribute: m_LocalRotation.z
    path: 
    classID: 4
    script: {fileID: 0}
  - curve:
      serializedVersion: 2
      m_Curve:
      - time: 5.0333333
        value: 0.8476248
        inSlope: 0.0020026893
        outSlope: 0.0020026893
        tangentMode: 0
      - time: 5.850011
        value: 0.8493133
        inSlope: 0.0020366635
        outSlope: 0.0020366635
        tangentMode: 0
      - time: 6.6666884
        value: 0.8507928
        inSlope: 0.0015002289
        outSlope: 0.0015002289
        tangentMode: 0
      - time: 7.483366
        value: 0.85164315
        inSlope: 0.00052391784
        outSlope: 0.00052391784
        tangentMode: 0
      - time: 8.3000345
        value: 0.85158575
        inSlope: -0.000686656
        outSlope: -0.000686656
        tangentMode: 0
      - time: 9.133355
        value: 0.8504875
        inSlope: -0.0019312201
        outSlope: -0.0019312201
        tangentMode: 0
      - time: 9.966676
        value: 0.8484381
        inSlope: -0.0029325932
        outSlope: -0.0029325932
        tangentMode: 0
      - time: 10.799996
        value: 0.84573174
        inSlope: -0.003476196
        outSlope: -0.003476196
        tangentMode: 0
      - time: 11.633317
        value: 0.8428164
        inSlope: -0.0034136102
        outSlope: -0.0034136102
        tangentMode: 0
      - time: 12.466638
        value: 0.8402193
        inSlope: -0.002714437
        outSlope: -0.002714437
        tangentMode: 0
      - time: 13.299958
        value: 0.83844304
        inSlope: -0.0014734494
        outSlope: -0.0014734494
        tangentMode: 0
      - time: 14.133279
        value: 0.83783245
        inSlope: 0.000019669833
        outSlope: 0.000019669833
        tangentMode: 0
      - time: 14.966599
        value: 0.8339174
        inSlope: -0.011454996
        outSlope: -0.011454996
        tangentMode: 0
      - time: 15.79992
        value: 0.81921494
        inSlope: -0.02332127
        outSlope: -0.02332127
        tangentMode: 0
      - time: 16.633242
        value: 0.7964373
        inSlope: -0.030076962
        outSlope: -0.030076962
        tangentMode: 0
      - time: 17.466562
        value: 0.7719613
        inSlope: -0.026514934
        outSlope: -0.026514934
        tangentMode: 0
      - time: 18.299883
        value: 0.75626457
        inSlope: -0.00861181
        outSlope: -0.00861181
        tangentMode: 0
      - time: 19.133204
        value: 0.7616279
        inSlope: 0.023569824
        outSlope: 0.023569824
        tangentMode: 0
      - time: 19.966524
        value: 0.7979138
        inSlope: 0.06398954
        outSlope: 0.06398954
        tangentMode: 0
      - time: 20.799845
        value: 0.8769274
        inSlope: 0.12384842
        outSlope: 0.12384842
        tangentMode: 0
      - time: 21.633165
        value: 0.96990967
        inSlope: 0.07982734
        outSlope: 0.07982734
        tangentMode: 0
      - time: 22.466486
        value: 0.9914677
        inSlope: -0.028700074
        outSlope: -0.028700074
        tangentMode: 0
      - time: 23.299807
        value: 0.9384723
        inSlope: -0.080415644
        outSlope: -0.080415644
        tangentMode: 0
      - time: 24.133127
        value: 0.8912016
        inSlope: -0.021102155
        outSlope: -0.021102155
        tangentMode: 0
      - time: 24.966448
        value: 0.8999251
        inSlope: 0.036945313
        outSlope: 0.036945313
        tangentMode: 0
      - time: 25.799768
        value: 0.9412411
        inSlope: 0.05481267
        outSlope: 0.05481267
        tangentMode: 0
      - time: 26.63309
        value: 0.9808873
        inSlope: 0.03607805
        outSlope: 0.03607805
        tangentMode: 0
      - time: 27.46641
        value: 0.99870044
        inSlope: 0.007749914
        outSlope: 0.007749914
        tangentMode: 0
      - time: 28.29973
        value: 0.9989042
        inSlope: -0.0031275034
        outSlope: -0.0031275034
        tangentMode: 0
      - time: 29.13305
        value: 0.9963782
        inSlope: -0.0028431849
        outSlope: -0.0028431849
        tangentMode: 0
      - time: 29.966372
        value: 0.9945868
        inSlope: -0.0013339723
        outSlope: -0.0013339723
        tangentMode: 0
      - time: 30.799692
        value: 0.9941887
        inSlope: 0.0003254463
        outSlope: 0.0003254463
        tangentMode: 0
      - time: 31.633013
        value: 0.9949598
        inSlope: 0.0014019227
        outSlope: 0.0014019227
        tangentMode: 0
      - time: 32.466335
        value: 0.99631244
        inSlope: 0.0017255808
        outSlope: 0.0017255808
        tangentMode: 0
      - time: 33.299656
        value: 0.9976677
        inSlope: 0.0014537794
        outSlope: 0.0014537794
        tangentMode: 0
      - time: 34.132977
        value: 0.99866176
        inSlope: 0.0009155413
        outSlope: 0.0009155413
        tangentMode: 0
      - time: 34.966297
        value: 0.9991913
        inSlope: 0.0003701505
        outSlope: 0.0003701505
        tangentMode: 0
      - time: 35.46667
        value: 0.9993026
        inSlope: 0.000080415084
        outSlope: 0.000080415084
        tangentMode: 0
      m_PreInfinity: 2
      m_PostInfinity: 2
      m_RotationOrder: 4
    attribute: m_LocalRotation.w
    path: 
    classID: 4
    script: {fileID: 0}
  m_EulerEditorCurves:
  - curve:
      serializedVersion: 2
      m_Curve:
      - time: 5.0333333
        value: 0
        inSlope: -0.7134487
        outSlope: -0.7134487
        tangentMode: 10
      - time: 14.283334
        value: -6.5994005
        inSlope: 0.19940493
        outSlope: 0.19940493
        tangentMode: 10
      - time: 20.216667
        value: 0
        inSlope: 0.5561293
        outSlope: 0.5561293
        tangentMode: 10
      - time: 23.95
        value: 0
        inSlope: 0
        outSlope: 0
        tangentMode: 10
      - time: 28.383339
        value: 0
        inSlope: -0.043336395
        outSlope: -0.043336395
        tangentMode: 10
      - time: 35.46667
        value: -0.61393213
        inSlope: -0.08667279
        outSlope: -0.08667279
        tangentMode: 10
      m_PreInfinity: 2
      m_PostInfinity: 2
      m_RotationOrder: 4
    attribute: localEulerAnglesBaked.x
    path: 
    classID: 4
    script: {fileID: 0}
  - curve:
      serializedVersion: 2
      m_Curve:
      - time: 5.0333333
        value: 64.09148
        inSlope: -0.43049952
        outSlope: -0.43049952
        tangentMode: 10
      - time: 14.283334
        value: 60.109356
        inSlope: 0.6475335
        outSlope: 0.6475335
        tangentMode: 10
      - time: 20.216667
        value: 70.34772
        inSlope: -15.458731
        outSlope: -15.458731
        tangentMode: 10
      - time: 23.95
        value: -51.5196
        inSlope: -9.839823
        outSlope: -9.839823
        tangentMode: 10
      - time: 28.383339
        value: 5.951458
        inSlope: 6.360565
        outSlope: 6.360565
        tangentMode: 10
      - time: 35.46667
        value: 4.235504
        inSlope: -0.24225235
        outSlope: -0.24225235
        tangentMode: 10
      m_PreInfinity: 2
      m_PostInfinity: 2
      m_RotationOrder: 4
    attribute: localEulerAnglesBaked.y
    path: 
    classID: 4
    script: {fileID: 0}
  - curve:
      serializedVersion: 2
      m_Curve:
      - time: 5.0333333
        value: 0
        inSlope: -3.502079
        outSlope: -3.502079
        tangentMode: 10
      - time: 14.283334
        value: -32.39423
        inSlope: 1.6529686
        outSlope: 1.6529686
        tangentMode: 10
      - time: 20.216667
        value: 8
        inSlope: 3.8057938
        outSlope: 3.8057938
        tangentMode: 10
      - time: 23.95
        value: 11
        inSlope: -0.8388144
        outSlope: -0.8388144
        tangentMode: 10
      - time: 28.383339
        value: 0
        inSlope: -1.2406001
        outSlope: -1.2406001
        tangentMode: 10
      - time: 35.46667
        value: 0
        inSlope: 0
        outSlope: 0
        tangentMode: 10
      m_PreInfinity: 2
      m_PostInfinity: 2
      m_RotationOrder: 4
    attribute: localEulerAnglesBaked.z
    path: 
    classID: 4
    script: {fileID: 0}
  m_HasGenericRootTransform: 0
  m_HasMotionFloatCurves: 0
  m_GenerateMotionCurves: 0
  m_Events: []
