%YAML 1.1
%TAG !u! tag:unity3d.com,2011:
--- !u!74 &7400000
AnimationClip:
  m_ObjectHideFlags: 0
  m_PrefabParentObject: {fileID: 0}
  m_PrefabInternal: {fileID: 0}
  m_Name: Camera_anim12
  serializedVersion: 6
  m_Legacy: 1
  m_Compressed: 0
  m_UseHighQualityCurve: 1
  m_RotationCurves:
  - curve:
      serializedVersion: 2
      m_Curve:
      - time: 4.8333335
        value: {x: 0, y: 0.70698184, z: 0, w: 0.7072317}
        inSlope: {x: 0, y: -0.0026714446, z: 0, w: 0.0026714446}
        outSlope: {x: 0, y: -0.0026714446, z: 0, w: 0.0026714446}
        tangentMode: -559038737
      - time: 5.650011
        value: {x: 0, y: 0.70479685, z: 0, w: 0.7094092}
        inSlope: {x: 0, y: -0.0026785969, z: 0, w: 0.0026607157}
        outSlope: {x: 0, y: -0.0026785969, z: 0, w: 0.0026607157}
        tangentMode: -559038737
      - time: 6.4666886
        value: {x: 0, y: 0.7026051, z: 0, w: 0.71158}
        inSlope: {x: 0, y: -0.0026857494, z: 0, w: 0.0026535634}
        outSlope: {x: 0, y: -0.0026857494, z: 0, w: 0.0026535634}
        tangentMode: -559038737
      - time: 7.283366
        value: {x: 0, y: 0.70040673, z: 0, w: 0.7137439}
        inSlope: {x: 0, y: -0.0026964783, z: 0, w: 0.0026464108}
        outSlope: {x: 0, y: -0.0026964783, z: 0, w: 0.0026464108}
        tangentMode: -559038737
      - time: 8.10004
        value: {x: 0, y: 0.6982016, z: 0, w: 0.7159012}
        inSlope: {x: 0, y: -0.002703708, z: 0, w: 0.0026357577}
        outSlope: {x: 0, y: -0.002703708, z: 0, w: 0.0026357577}
        tangentMode: -559038737
      - time: 8.933361
        value: {x: 0, y: 0.6959447, z: 0, w: 0.71809536}
        inSlope: {x: 0, y: -0.0027108607, z: 0, w: 0.0026286049}
        outSlope: {x: 0, y: -0.0027108607, z: 0, w: 0.0026286049}
        tangentMode: -559038737
      - time: 9.766682
        value: {x: 0, y: 0.693681, z: 0, w: 0.7202823}
        inSlope: {x: 0, y: -0.0027198014, z: 0, w: 0.0026196642}
        outSlope: {x: 0, y: -0.0027198014, z: 0, w: 0.0026196642}
        tangentMode: -559038737
      - time: 10.600002
        value: {x: 0, y: 0.69141036, z: 0, w: 0.72246224}
        inSlope: {x: 0, y: -0.0027287423, z: 0, w: 0.0026107233}
        outSlope: {x: 0, y: -0.0027287423, z: 0, w: 0.0026107233}
        tangentMode: -559038737
      - time: 11.433323
        value: {x: 0, y: 0.6891329, z: 0, w: 0.72463495}
        inSlope: {x: 0, y: -0.0027376832, z: 0, w: 0.0026017823}
        outSlope: {x: 0, y: -0.0027376832, z: 0, w: 0.0026017823}
        tangentMode: -559038737
      - time: 12.266644
        value: {x: 0, y: 0.68684864, z: 0, w: 0.7268005}
        inSlope: {x: 0, y: -0.002746624, z: 0, w: 0.0025946298}
        outSlope: {x: 0, y: -0.002746624, z: 0, w: 0.0025946298}
        tangentMode: -559038737
      - time: 13.099964
        value: {x: 0, y: 0.6845575, z: 0, w: 0.72895885}
        inSlope: {x: 0, y: -0.0027555646, z: 0, w: 0.0025874772}
        outSlope: {x: 0, y: -0.0027555646, z: 0, w: 0.0025874772}
        tangentMode: -559038737
      - time: 13.933285
        value: {x: 0, y: 0.6822596, z: 0, w: 0.73111004}
        inSlope: {x: 0, y: -0.0027627174, z: 0, w: 0.0025785363}
        outSlope: {x: 0, y: -0.0027627174, z: 0, w: 0.0025785363}
        tangentMode: -559038737
      - time: 14.766605
        value: {x: 0, y: 0.67995495, z: 0, w: 0.7332539}
        inSlope: {x: 0, y: -0.0027698702, z: 0, w: 0.0025695954}
        outSlope: {x: 0, y: -0.0027698702, z: 0, w: 0.0025695954}
        tangentMode: -559038737
      - time: 15.599926
        value: {x: 0, y: 0.67764354, z: 0, w: 0.73539054}
        inSlope: {x: 0, y: -0.0027770228, z: 0, w: 0.0025588665}
        outSlope: {x: 0, y: -0.0027770228, z: 0, w: 0.0025588665}
        tangentMode: -559038737
      - time: 16.433247
        value: {x: 0, y: 0.6753254, z: 0, w: 0.73751986}
        inSlope: {x: 0, y: -0.0027841753, z: 0, w: 0.0025517137}
        outSlope: {x: 0, y: -0.0027841753, z: 0, w: 0.0025517137}
        tangentMode: -559038737
      - time: 17.266567
        value: {x: 0, y: 0.67300063, z: 0, w: 0.7396419}
        inSlope: {x: 0, y: -0.0027931163, z: 0, w: 0.0025409847}
        outSlope: {x: 0, y: -0.0027931163, z: 0, w: 0.0025409847}
        tangentMode: -559038737
      - time: 18.099888
        value: {x: 0, y: 0.6706692, z: 0, w: 0.7417566}
        inSlope: {x: 0, y: -0.0028020572, z: 0, w: 0.002533832}
        outSlope: {x: 0, y: -0.0028020572, z: 0, w: 0.002533832}
        tangentMode: -559038737
      - time: 18.933208
        value: {x: 0, y: 0.6683311, z: 0, w: 0.74386394}
        inSlope: {x: 0, y: -0.0028092097, z: 0, w: 0.0025248912}
        outSlope: {x: 0, y: -0.0028092097, z: 0, w: 0.0025248912}
        tangentMode: -559038737
      - time: 19.76653
        value: {x: 0, y: 0.6659863, z: 0, w: 0.74596393}
        inSlope: {x: 0, y: -0.0028163623, z: 0, w: 0.0025159505}
        outSlope: {x: 0, y: -0.0028163623, z: 0, w: 0.0025159505}
        tangentMode: -559038737
      - time: 20.59985
        value: {x: 0, y: 0.663635, z: 0, w: 0.74805653}
        inSlope: {x: 0, y: -0.002823515, z: 0, w: 0.0025070095}
        outSlope: {x: 0, y: -0.002823515, z: 0, w: 0.0025070095}
        tangentMode: -559038737
      - time: 21.43317
        value: {x: 0, y: 0.66127706, z: 0, w: 0.75014174}
        inSlope: {x: 0, y: -0.0028342442, z: 0, w: 0.0024980688}
        outSlope: {x: 0, y: -0.0028342442, z: 0, w: 0.0024980688}
        tangentMode: -559038737
      - time: 22.26649
        value: {x: 0, y: 0.6589126, z: 0, w: 0.7522195}
        inSlope: {x: 0, y: -0.0028413967, z: 0, w: 0.002490916}
        outSlope: {x: 0, y: -0.0028413967, z: 0, w: 0.002490916}
        tangentMode: -559038737
      - time: 23.099812
        value: {x: 0, y: 0.65654165, z: 0, w: 0.7542898}
        inSlope: {x: 0, y: -0.0028503377, z: 0, w: 0.002480187}
        outSlope: {x: 0, y: -0.0028503377, z: 0, w: 0.002480187}
        tangentMode: -559038737
      - time: 23.933132
        value: {x: 0, y: 0.65416414, z: 0, w: 0.7563526}
        inSlope: {x: 0, y: -0.002855702, z: 0, w: 0.0024712463}
        outSlope: {x: 0, y: -0.002855702, z: 0, w: 0.0024712463}
        tangentMode: -559038737
      - time: 24.766453
        value: {x: 0, y: 0.6517801, z: 0, w: 0.75840795}
        inSlope: {x: 0, y: -0.002864643, z: 0, w: 0.0024623054}
        outSlope: {x: 0, y: -0.002864643, z: 0, w: 0.0024623054}
        tangentMode: -559038737
      - time: 25.599773
        value: {x: 0, y: 0.64938974, z: 0, w: 0.7604557}
        inSlope: {x: 0, y: -0.0028717956, z: 0, w: 0.0024515765}
        outSlope: {x: 0, y: -0.0028717956, z: 0, w: 0.0024515765}
        tangentMode: -559038737
      - time: 26.433094
        value: {x: 0, y: 0.64699286, z: 0, w: 0.76249605}
        inSlope: {x: 0, y: -0.0028807365, z: 0, w: 0.0024426356}
        outSlope: {x: 0, y: -0.0028807365, z: 0, w: 0.0024426356}
        tangentMode: -559038737
      - time: 27.266415
        value: {x: 0, y: 0.64458966, z: 0, w: 0.76452875}
        inSlope: {x: 0, y: -0.002886101, z: 0, w: 0.002433695}
        outSlope: {x: 0, y: -0.002886101, z: 0, w: 0.002433695}
        tangentMode: -559038737
      - time: 28.099735
        value: {x: 0, y: 0.64217997, z: 0, w: 0.7665539}
        inSlope: {x: 0, y: -0.0028950418, z: 0, w: 0.002424754}
        outSlope: {x: 0, y: -0.0028950418, z: 0, w: 0.002424754}
        tangentMode: -559038737
      - time: 28.933056
        value: {x: 0, y: 0.63976395, z: 0, w: 0.76857144}
        inSlope: {x: 0, y: -0.0029021944, z: 0, w: 0.0024176012}
        outSlope: {x: 0, y: -0.0029021944, z: 0, w: 0.0024176012}
        tangentMode: -559038737
      - time: 29.766376
        value: {x: 0, y: 0.63734156, z: 0, w: 0.7705814}
        inSlope: {x: 0, y: -0.0029093472, z: 0, w: 0.0024068723}
        outSlope: {x: 0, y: -0.0029093472, z: 0, w: 0.0024068723}
        tangentMode: -559038737
      - time: 30.599697
        value: {x: 0, y: 0.6349129, z: 0, w: 0.7725837}
        inSlope: {x: 0, y: -0.0029182879, z: 0, w: 0.0023979314}
        outSlope: {x: 0, y: -0.0029182879, z: 0, w: 0.0023979314}
        tangentMode: -559038737
      - time: 31.433018
        value: {x: 0, y: 0.63247794, z: 0, w: 0.7745784}
        inSlope: {x: 0, y: -0.0029272288, z: 0, w: 0.0023889907}
        outSlope: {x: 0, y: -0.0029272288, z: 0, w: 0.0023889907}
        tangentMode: -559038737
      - time: 32.26634
        value: {x: 0, y: 0.6300367, z: 0, w: 0.7765654}
        inSlope: {x: 0, y: -0.0029343814, z: 0, w: 0.002381838}
        outSlope: {x: 0, y: -0.0029343814, z: 0, w: 0.002381838}
        tangentMode: -559038737
      - time: 33.09966
        value: {x: 0, y: 0.6275892, z: 0, w: 0.77854466}
        inSlope: {x: 0, y: -0.0029415342, z: 0, w: 0.0023693207}
        outSlope: {x: 0, y: -0.0029415342, z: 0, w: 0.0023693207}
        tangentMode: -559038737
      - time: 33.93298
        value: {x: 0, y: 0.6251355, z: 0, w: 0.78051627}
        inSlope: {x: 0, y: -0.0029468986, z: 0, w: 0.0023603798}
        outSlope: {x: 0, y: -0.0029468986, z: 0, w: 0.0023603798}
        tangentMode: -559038737
      - time: 34.716667
        value: {x: 0, y: 0.62282234, z: 0, w: 0.7823633}
        inSlope: {x: 0, y: -0.0029535275, z: 0, w: 0.0023516237}
        outSlope: {x: 0, y: -0.0029535275, z: 0, w: 0.0023516237}
        tangentMode: -559038737
      m_PreInfinity: 2
      m_PostInfinity: 2
      m_RotationOrder: 4
    path: 
  m_CompressedRotationCurves: []
  m_EulerCurves: []
  m_PositionCurves:
  - curve:
      serializedVersion: 2
      m_Curve:
      - time: 4.8333335
        value: {x: 462.58658, y: 156.55281, z: 487.8838}
        inSlope: {x: 0.10596629, y: -0.15009798, z: 1.298417}
        outSlope: {x: 0.10596629, y: -0.15009798, z: 1.298417}
        tangentMode: -559038737
      - time: 34.716667
        value: {x: 465.7532, y: 152.06738, z: 526.6848}
        inSlope: {x: 0.10596629, y: -0.15009798, z: 1.298417}
        outSlope: {x: 0.10596629, y: -0.15009798, z: 1.298417}
        tangentMode: -559038737
      m_PreInfinity: 2
      m_PostInfinity: 2
      m_RotationOrder: 4
    path: 
  m_ScaleCurves:
  - curve:
      serializedVersion: 2
      m_Curve:
      - time: 4.8333335
        value: {x: 1, y: 1, z: 1}
        inSlope: {x: 0, y: 0, z: 0}
        outSlope: {x: 0, y: 0, z: 0}
        tangentMode: -559038737
      - time: 34.716667
        value: {x: 1, y: 1, z: 1}
        inSlope: {x: 0, y: 0, z: 0}
        outSlope: {x: 0, y: 0, z: 0}
        tangentMode: -559038737
      m_PreInfinity: 2
      m_PostInfinity: 2
      m_RotationOrder: 4
    path: 
  m_FloatCurves: []
  m_PPtrCurves: []
  m_SampleRate: 60
  m_WrapMode: 0
  m_Bounds:
    m_Center: {x: 0, y: 0, z: 0}
    m_Extent: {x: 0, y: 0, z: 0}
  m_ClipBindingConstant:
    genericBindings: []
    pptrCurveMapping: []
  m_AnimationClipSettings:
    serializedVersion: 2
    m_AdditiveReferencePoseClip: {fileID: 0}
    m_AdditiveReferencePoseTime: 0
    m_StartTime: 0
    m_StopTime: 1
    m_OrientationOffsetY: 0
    m_Level: 0
    m_CycleOffset: 0
    m_HasAdditiveReferencePose: 0
    m_LoopTime: 0
    m_LoopBlend: 0
    m_LoopBlendOrientation: 0
    m_LoopBlendPositionY: 0
    m_LoopBlendPositionXZ: 0
    m_KeepOriginalOrientation: 0
    m_KeepOriginalPositionY: 1
    m_KeepOriginalPositionXZ: 0
    m_HeightFromFeet: 0
    m_Mirror: 0
  m_EditorCurves:
  - curve:
      serializedVersion: 2
      m_Curve:
      - time: 4.8333335
        value: 462.58658
        inSlope: 0.10596629
        outSlope: 0.10596629
        tangentMode: 10
      - time: 34.716667
        value: 465.7532
        inSlope: 0.10596629
        outSlope: 0.10596629
        tangentMode: 10
      m_PreInfinity: 2
      m_PostInfinity: 2
      m_RotationOrder: 4
    attribute: m_LocalPosition.x
    path: 
    classID: 4
    script: {fileID: 0}
  - curve:
      serializedVersion: 2
      m_Curve:
      - time: 4.8333335
        value: 156.55281
        inSlope: -0.15009798
        outSlope: -0.15009798
        tangentMode: 10
      - time: 34.716667
        value: 152.06738
        inSlope: -0.15009798
        outSlope: -0.15009798
        tangentMode: 10
      m_PreInfinity: 2
      m_PostInfinity: 2
      m_RotationOrder: 4
    attribute: m_LocalPosition.y
    path: 
    classID: 4
    script: {fileID: 0}
  - curve:
      serializedVersion: 2
      m_Curve:
      - time: 4.8333335
        value: 487.8838
        inSlope: 1.298417
        outSlope: 1.298417
        tangentMode: 10
      - time: 34.716667
        value: 526.6848
        inSlope: 1.298417
        outSlope: 1.298417
        tangentMode: 10
      m_PreInfinity: 2
      m_PostInfinity: 2
      m_RotationOrder: 4
    attribute: m_LocalPosition.z
    path: 
    classID: 4
    script: {fileID: 0}
  - curve:
      serializedVersion: 2
      m_Curve:
      - time: 4.8333335
        value: 1
        inSlope: 0
        outSlope: 0
        tangentMode: 10
      - time: 34.716667
        value: 1
        inSlope: 0
        outSlope: 0
        tangentMode: 10
      m_PreInfinity: 2
      m_PostInfinity: 2
      m_RotationOrder: 4
    attribute: m_LocalScale.z
    path: 
    classID: 4
    script: {fileID: 0}
  - curve:
      serializedVersion: 2
      m_Curve:
      - time: 4.8333335
        value: 1
        inSlope: 0
        outSlope: 0
        tangentMode: 10
      - time: 34.716667
        value: 1
        inSlope: 0
        outSlope: 0
        tangentMode: 10
      m_PreInfinity: 2
      m_PostInfinity: 2
      m_RotationOrder: 4
    attribute: m_LocalScale.y
    path: 
    classID: 4
    script: {fileID: 0}
  - curve:
      serializedVersion: 2
      m_Curve:
      - time: 4.8333335
        value: 1
        inSlope: 0
        outSlope: 0
        tangentMode: 10
      - time: 34.716667
        value: 1
        inSlope: 0
        outSlope: 0
        tangentMode: 10
      m_PreInfinity: 2
      m_PostInfinity: 2
      m_RotationOrder: 4
    attribute: m_LocalScale.x
    path: 
    classID: 4
    script: {fileID: 0}
  - curve:
      serializedVersion: 2
      m_Curve:
      - time: 4.8333335
        value: 0
        inSlope: 0
        outSlope: 0
        tangentMode: 0
      - time: 5.650011
        value: 0
        inSlope: 0
        outSlope: 0
        tangentMode: 0
      - time: 6.4666886
        value: 0
        inSlope: 0
        outSlope: 0
        tangentMode: 0
      - time: 7.283366
        value: 0
        inSlope: 0
        outSlope: 0
        tangentMode: 0
      - time: 8.10004
        value: 0
        inSlope: 0
        outSlope: 0
        tangentMode: 0
      - time: 8.933361
        value: 0
        inSlope: 0
        outSlope: 0
        tangentMode: 0
      - time: 9.766682
        value: 0
        inSlope: 0
        outSlope: 0
        tangentMode: 0
      - time: 10.600002
        value: 0
        inSlope: 0
        outSlope: 0
        tangentMode: 0
      - time: 11.433323
        value: 0
        inSlope: 0
        outSlope: 0
        tangentMode: 0
      - time: 12.266644
        value: 0
        inSlope: 0
        outSlope: 0
        tangentMode: 0
      - time: 13.099964
        value: 0
        inSlope: 0
        outSlope: 0
        tangentMode: 0
      - time: 13.933285
        value: 0
        inSlope: 0
        outSlope: 0
        tangentMode: 0
      - time: 14.766605
        value: 0
        inSlope: 0
        outSlope: 0
        tangentMode: 0
      - time: 15.599926
        value: 0
        inSlope: 0
        outSlope: 0
        tangentMode: 0
      - time: 16.433247
        value: 0
        inSlope: 0
        outSlope: 0
        tangentMode: 0
      - time: 17.266567
        value: 0
        inSlope: 0
        outSlope: 0
        tangentMode: 0
      - time: 18.099888
        value: 0
        inSlope: 0
        outSlope: 0
        tangentMode: 0
      - time: 18.933208
        value: 0
        inSlope: 0
        outSlope: 0
        tangentMode: 0
      - time: 19.76653
        value: 0
        inSlope: 0
        outSlope: 0
        tangentMode: 0
      - time: 20.59985
        value: 0
        inSlope: 0
        outSlope: 0
        tangentMode: 0
      - time: 21.43317
        value: 0
        inSlope: 0
        outSlope: 0
        tangentMode: 0
      - time: 22.26649
        value: 0
        inSlope: 0
        outSlope: 0
        tangentMode: 0
      - time: 23.099812
        value: 0
        inSlope: 0
        outSlope: 0
        tangentMode: 0
      - time: 23.933132
        value: 0
        inSlope: 0
        outSlope: 0
        tangentMode: 0
      - time: 24.766453
        value: 0
        inSlope: 0
        outSlope: 0
        tangentMode: 0
      - time: 25.599773
        value: 0
        inSlope: 0
        outSlope: 0
        tangentMode: 0
      - time: 26.433094
        value: 0
        inSlope: 0
        outSlope: 0
        tangentMode: 0
      - time: 27.266415
        value: 0
        inSlope: 0
        outSlope: 0
        tangentMode: 0
      - time: 28.099735
        value: 0
        inSlope: 0
        outSlope: 0
        tangentMode: 0
      - time: 28.933056
        value: 0
        inSlope: 0
        outSlope: 0
        tangentMode: 0
      - time: 29.766376
        value: 0
        inSlope: 0
        outSlope: 0
        tangentMode: 0
      - time: 30.599697
        value: 0
        inSlope: 0
        outSlope: 0
        tangentMode: 0
      - time: 31.433018
        value: 0
        inSlope: 0
        outSlope: 0
        tangentMode: 0
      - time: 32.26634
        value: 0
        inSlope: 0
        outSlope: 0
        tangentMode: 0
      - time: 33.09966
        value: 0
        inSlope: 0
        outSlope: 0
        tangentMode: 0
      - time: 33.93298
        value: 0
        inSlope: 0
        outSlope: 0
        tangentMode: 0
      - time: 34.716667
        value: 0
        inSlope: 0
        outSlope: 0
        tangentMode: 0
      m_PreInfinity: 2
      m_PostInfinity: 2
      m_RotationOrder: 4
    attribute: m_LocalRotation.x
    path: 
    classID: 4
    script: {fileID: 0}
  - curve:
      serializedVersion: 2
      m_Curve:
      - time: 4.8333335
        value: 0.70698184
        inSlope: -0.0026714446
        outSlope: -0.0026714446
        tangentMode: 0
      - time: 5.650011
        value: 0.70479685
        inSlope: -0.0026785969
        outSlope: -0.0026785969
        tangentMode: 0
      - time: 6.4666886
        value: 0.7026051
        inSlope: -0.0026857494
        outSlope: -0.0026857494
        tangentMode: 0
      - time: 7.283366
        value: 0.70040673
        inSlope: -0.0026964783
        outSlope: -0.0026964783
        tangentMode: 0
      - time: 8.10004
        value: 0.6982016
        inSlope: -0.002703708
        outSlope: -0.002703708
        tangentMode: 0
      - time: 8.933361
        value: 0.6959447
        inSlope: -0.0027108607
        outSlope: -0.0027108607
        tangentMode: 0
      - time: 9.766682
        value: 0.693681
        inSlope: -0.0027198014
        outSlope: -0.0027198014
        tangentMode: 0
      - time: 10.600002
        value: 0.69141036
        inSlope: -0.0027287423
        outSlope: -0.0027287423
        tangentMode: 0
      - time: 11.433323
        value: 0.6891329
        inSlope: -0.0027376832
        outSlope: -0.0027376832
        tangentMode: 0
      - time: 12.266644
        value: 0.68684864
        inSlope: -0.002746624
        outSlope: -0.002746624
        tangentMode: 0
      - time: 13.099964
        value: 0.6845575
        inSlope: -0.0027555646
        outSlope: -0.0027555646
        tangentMode: 0
      - time: 13.933285
        value: 0.6822596
        inSlope: -0.0027627174
        outSlope: -0.0027627174
        tangentMode: 0
      - time: 14.766605
        value: 0.67995495
        inSlope: -0.0027698702
        outSlope: -0.0027698702
        tangentMode: 0
      - time: 15.599926
        value: 0.67764354
        inSlope: -0.0027770228
        outSlope: -0.0027770228
        tangentMode: 0
      - time: 16.433247
        value: 0.6753254
        inSlope: -0.0027841753
        outSlope: -0.0027841753
        tangentMode: 0
      - time: 17.266567
        value: 0.67300063
        inSlope: -0.0027931163
        outSlope: -0.0027931163
        tangentMode: 0
      - time: 18.099888
        value: 0.6706692
        inSlope: -0.0028020572
        outSlope: -0.0028020572
        tangentMode: 0
      - time: 18.933208
        value: 0.6683311
        inSlope: -0.0028092097
        outSlope: -0.0028092097
        tangentMode: 0
      - time: 19.76653
        value: 0.6659863
        inSlope: -0.0028163623
        outSlope: -0.0028163623
        tangentMode: 0
      - time: 20.59985
        value: 0.663635
        inSlope: -0.002823515
        outSlope: -0.002823515
        tangentMode: 0
      - time: 21.43317
        value: 0.66127706
        inSlope: -0.0028342442
        outSlope: -0.0028342442
        tangentMode: 0
      - time: 22.26649
        value: 0.6589126
        inSlope: -0.0028413967
        outSlope: -0.0028413967
        tangentMode: 0
      - time: 23.099812
        value: 0.65654165
        inSlope: -0.0028503377
        outSlope: -0.0028503377
        tangentMode: 0
      - time: 23.933132
        value: 0.65416414
        inSlope: -0.002855702
        outSlope: -0.002855702
        tangentMode: 0
      - time: 24.766453
        value: 0.6517801
        inSlope: -0.002864643
        outSlope: -0.002864643
        tangentMode: 0
      - time: 25.599773
        value: 0.64938974
        inSlope: -0.0028717956
        outSlope: -0.0028717956
        tangentMode: 0
      - time: 26.433094
        value: 0.64699286
        inSlope: -0.0028807365
        outSlope: -0.0028807365
        tangentMode: 0
      - time: 27.266415
        value: 0.64458966
        inSlope: -0.002886101
        outSlope: -0.002886101
        tangentMode: 0
      - time: 28.099735
        value: 0.64217997
        inSlope: -0.0028950418
        outSlope: -0.0028950418
        tangentMode: 0
      - time: 28.933056
        value: 0.63976395
        inSlope: -0.0029021944
        outSlope: -0.0029021944
        tangentMode: 0
      - time: 29.766376
        value: 0.63734156
        inSlope: -0.0029093472
        outSlope: -0.0029093472
        tangentMode: 0
      - time: 30.599697
        value: 0.6349129
        inSlope: -0.0029182879
        outSlope: -0.0029182879
        tangentMode: 0
      - time: 31.433018
        value: 0.63247794
        inSlope: -0.0029272288
        outSlope: -0.0029272288
        tangentMode: 0
      - time: 32.26634
        value: 0.6300367
        inSlope: -0.0029343814
        outSlope: -0.0029343814
        tangentMode: 0
      - time: 33.09966
        value: 0.6275892
        inSlope: -0.0029415342
        outSlope: -0.0029415342
        tangentMode: 0
      - time: 33.93298
        value: 0.6251355
        inSlope: -0.0029468986
        outSlope: -0.0029468986
        tangentMode: 0
      - time: 34.716667
        value: 0.62282234
        inSlope: -0.0029535275
        outSlope: -0.0029535275
        tangentMode: 0
      m_PreInfinity: 2
      m_PostInfinity: 2
      m_RotationOrder: 4
    attribute: m_LocalRotation.y
    path: 
    classID: 4
    script: {fileID: 0}
  - curve:
      serializedVersion: 2
      m_Curve:
      - time: 4.8333335
        value: 0
        inSlope: 0
        outSlope: 0
        tangentMode: 0
      - time: 5.650011
        value: 0
        inSlope: 0
        outSlope: 0
        tangentMode: 0
      - time: 6.4666886
        value: 0
        inSlope: 0
        outSlope: 0
        tangentMode: 0
      - time: 7.283366
        value: 0
        inSlope: 0
        outSlope: 0
        tangentMode: 0
      - time: 8.10004
        value: 0
        inSlope: 0
        outSlope: 0
        tangentMode: 0
      - time: 8.933361
        value: 0
        inSlope: 0
        outSlope: 0
        tangentMode: 0
      - time: 9.766682
        value: 0
        inSlope: 0
        outSlope: 0
        tangentMode: 0
      - time: 10.600002
        value: 0
        inSlope: 0
        outSlope: 0
        tangentMode: 0
      - time: 11.433323
        value: 0
        inSlope: 0
        outSlope: 0
        tangentMode: 0
      - time: 12.266644
        value: 0
        inSlope: 0
        outSlope: 0
        tangentMode: 0
      - time: 13.099964
        value: 0
        inSlope: 0
        outSlope: 0
        tangentMode: 0
      - time: 13.933285
        value: 0
        inSlope: 0
        outSlope: 0
        tangentMode: 0
      - time: 14.766605
        value: 0
        inSlope: 0
        outSlope: 0
        tangentMode: 0
      - time: 15.599926
        value: 0
        inSlope: 0
        outSlope: 0
        tangentMode: 0
      - time: 16.433247
        value: 0
        inSlope: 0
        outSlope: 0
        tangentMode: 0
      - time: 17.266567
        value: 0
        inSlope: 0
        outSlope: 0
        tangentMode: 0
      - time: 18.099888
        value: 0
        inSlope: 0
        outSlope: 0
        tangentMode: 0
      - time: 18.933208
        value: 0
        inSlope: 0
        outSlope: 0
        tangentMode: 0
      - time: 19.76653
        value: 0
        inSlope: 0
        outSlope: 0
        tangentMode: 0
      - time: 20.59985
        value: 0
        inSlope: 0
        outSlope: 0
        tangentMode: 0
      - time: 21.43317
        value: 0
        inSlope: 0
        outSlope: 0
        tangentMode: 0
      - time: 22.26649
        value: 0
        inSlope: 0
        outSlope: 0
        tangentMode: 0
      - time: 23.099812
        value: 0
        inSlope: 0
        outSlope: 0
        tangentMode: 0
      - time: 23.933132
        value: 0
        inSlope: 0
        outSlope: 0
        tangentMode: 0
      - time: 24.766453
        value: 0
        inSlope: 0
        outSlope: 0
        tangentMode: 0
      - time: 25.599773
        value: 0
        inSlope: 0
        outSlope: 0
        tangentMode: 0
      - time: 26.433094
        value: 0
        inSlope: 0
        outSlope: 0
        tangentMode: 0
      - time: 27.266415
        value: 0
        inSlope: 0
        outSlope: 0
        tangentMode: 0
      - time: 28.099735
        value: 0
        inSlope: 0
        outSlope: 0
        tangentMode: 0
      - time: 28.933056
        value: 0
        inSlope: 0
        outSlope: 0
        tangentMode: 0
      - time: 29.766376
        value: 0
        inSlope: 0
        outSlope: 0
        tangentMode: 0
      - time: 30.599697
        value: 0
        inSlope: 0
        outSlope: 0
        tangentMode: 0
      - time: 31.433018
        value: 0
        inSlope: 0
        outSlope: 0
        tangentMode: 0
      - time: 32.26634
        value: 0
        inSlope: 0
        outSlope: 0
        tangentMode: 0
      - time: 33.09966
        value: 0
        inSlope: 0
        outSlope: 0
        tangentMode: 0
      - time: 33.93298
        value: 0
        inSlope: 0
        outSlope: 0
        tangentMode: 0
      - time: 34.716667
        value: 0
        inSlope: 0
        outSlope: 0
        tangentMode: 0
      m_PreInfinity: 2
      m_PostInfinity: 2
      m_RotationOrder: 4
    attribute: m_LocalRotation.z
    path: 
    classID: 4
    script: {fileID: 0}
  - curve:
      serializedVersion: 2
      m_Curve:
      - time: 4.8333335
        value: 0.7072317
        inSlope: 0.0026714446
        outSlope: 0.0026714446
        tangentMode: 0
      - time: 5.650011
        value: 0.7094092
        inSlope: 0.0026607157
        outSlope: 0.0026607157
        tangentMode: 0
      - time: 6.4666886
        value: 0.71158
        inSlope: 0.0026535634
        outSlope: 0.0026535634
        tangentMode: 0
      - time: 7.283366
        value: 0.7137439
        inSlope: 0.0026464108
        outSlope: 0.0026464108
        tangentMode: 0
      - time: 8.10004
        value: 0.7159012
        inSlope: 0.0026357577
        outSlope: 0.0026357577
        tangentMode: 0
      - time: 8.933361
        value: 0.71809536
        inSlope: 0.0026286049
        outSlope: 0.0026286049
        tangentMode: 0
      - time: 9.766682
        value: 0.7202823
        inSlope: 0.0026196642
        outSlope: 0.0026196642
        tangentMode: 0
      - time: 10.600002
        value: 0.72246224
        inSlope: 0.0026107233
        outSlope: 0.0026107233
        tangentMode: 0
      - time: 11.433323
        value: 0.72463495
        inSlope: 0.0026017823
        outSlope: 0.0026017823
        tangentMode: 0
      - time: 12.266644
        value: 0.7268005
        inSlope: 0.0025946298
        outSlope: 0.0025946298
        tangentMode: 0
      - time: 13.099964
        value: 0.72895885
        inSlope: 0.0025874772
        outSlope: 0.0025874772
        tangentMode: 0
      - time: 13.933285
        value: 0.73111004
        inSlope: 0.0025785363
        outSlope: 0.0025785363
        tangentMode: 0
      - time: 14.766605
        value: 0.7332539
        inSlope: 0.0025695954
        outSlope: 0.0025695954
        tangentMode: 0
      - time: 15.599926
        value: 0.73539054
        inSlope: 0.0025588665
        outSlope: 0.0025588665
        tangentMode: 0
      - time: 16.433247
        value: 0.73751986
        inSlope: 0.0025517137
        outSlope: 0.0025517137
        tangentMode: 0
      - time: 17.266567
        value: 0.7396419
        inSlope: 0.0025409847
        outSlope: 0.0025409847
        tangentMode: 0
      - time: 18.099888
        value: 0.7417566
        inSlope: 0.002533832
        outSlope: 0.002533832
        tangentMode: 0
      - time: 18.933208
        value: 0.74386394
        inSlope: 0.0025248912
        outSlope: 0.0025248912
        tangentMode: 0
      - time: 19.76653
        value: 0.74596393
        inSlope: 0.0025159505
        outSlope: 0.0025159505
        tangentMode: 0
      - time: 20.59985
        value: 0.74805653
        inSlope: 0.0025070095
        outSlope: 0.0025070095
        tangentMode: 0
      - time: 21.43317
        value: 0.75014174
        inSlope: 0.0024980688
        outSlope: 0.0024980688
        tangentMode: 0
      - time: 22.26649
        value: 0.7522195
        inSlope: 0.002490916
        outSlope: 0.002490916
        tangentMode: 0
      - time: 23.099812
        value: 0.7542898
        inSlope: 0.002480187
        outSlope: 0.002480187
        tangentMode: 0
      - time: 23.933132
        value: 0.7563526
        inSlope: 0.0024712463
        outSlope: 0.0024712463
        tangentMode: 0
      - time: 24.766453
        value: 0.75840795
        inSlope: 0.0024623054
        outSlope: 0.0024623054
        tangentMode: 0
      - time: 25.599773
        value: 0.7604557
        inSlope: 0.0024515765
        outSlope: 0.0024515765
        tangentMode: 0
      - time: 26.433094
        value: 0.76249605
        inSlope: 0.0024426356
        outSlope: 0.0024426356
        tangentMode: 0
      - time: 27.266415
        value: 0.76452875
        inSlope: 0.002433695
        outSlope: 0.002433695
        tangentMode: 0
      - time: 28.099735
        value: 0.7665539
        inSlope: 0.002424754
        outSlope: 0.002424754
        tangentMode: 0
      - time: 28.933056
        value: 0.76857144
        inSlope: 0.0024176012
        outSlope: 0.0024176012
        tangentMode: 0
      - time: 29.766376
        value: 0.7705814
        inSlope: 0.0024068723
        outSlope: 0.0024068723
        tangentMode: 0
      - time: 30.599697
        value: 0.7725837
        inSlope: 0.0023979314
        outSlope: 0.0023979314
        tangentMode: 0
      - time: 31.433018
        value: 0.7745784
        inSlope: 0.0023889907
        outSlope: 0.0023889907
        tangentMode: 0
      - time: 32.26634
        value: 0.7765654
        inSlope: 0.002381838
        outSlope: 0.002381838
        tangentMode: 0
      - time: 33.09966
        value: 0.77854466
        inSlope: 0.0023693207
        outSlope: 0.0023693207
        tangentMode: 0
      - time: 33.93298
        value: 0.78051627
        inSlope: 0.0023603798
        outSlope: 0.0023603798
        tangentMode: 0
      - time: 34.716667
        value: 0.7823633
        inSlope: 0.0023516237
        outSlope: 0.0023516237
        tangentMode: 0
      m_PreInfinity: 2
      m_PostInfinity: 2
      m_RotationOrder: 4
    attribute: m_LocalRotation.w
    path: 
    classID: 4
    script: {fileID: 0}
  m_EulerEditorCurves:
  - curve:
      serializedVersion: 2
      m_Curve:
      - time: 4.8333335
        value: 0
        inSlope: 0
        outSlope: 0
        tangentMode: 10
      - time: 34.716667
        value: 0
        inSlope: 0
        outSlope: 0
        tangentMode: 10
      m_PreInfinity: 2
      m_PostInfinity: 2
      m_RotationOrder: 4
    attribute: localEulerAnglesBaked.x
    path: 
    classID: 4
    script: {fileID: 0}
  - curve:
      serializedVersion: 2
      m_Curve:
      - time: 4.8333335
        value: 89.97976
        inSlope: -0.43283993
        outSlope: -0.43283993
        tangentMode: 10
      - time: 34.716667
        value: 77.04506
        inSlope: -0.43283993
        outSlope: -0.43283993
        tangentMode: 10
      m_PreInfinity: 2
      m_PostInfinity: 2
      m_RotationOrder: 4
    attribute: localEulerAnglesBaked.y
    path: 
    classID: 4
    script: {fileID: 0}
  - curve:
      serializedVersion: 2
      m_Curve:
      - time: 4.8333335
        value: 0
        inSlope: 0
        outSlope: 0
        tangentMode: 10
      - time: 34.716667
        value: 0
        inSlope: 0
        outSlope: 0
        tangentMode: 10
      m_PreInfinity: 2
      m_PostInfinity: 2
      m_RotationOrder: 4
    attribute: localEulerAnglesBaked.z
    path: 
    classID: 4
    script: {fileID: 0}
  m_HasGenericRootTransform: 0
  m_HasMotionFloatCurves: 0
  m_GenerateMotionCurves: 0
  m_Events: []
