%YAML 1.1
%TAG !u! tag:unity3d.com,2011:
--- !u!74 &7400000
AnimationClip:
  m_ObjectHideFlags: 0
  m_PrefabParentObject: {fileID: 0}
  m_PrefabInternal: {fileID: 0}
  m_Name: Camera_anim10
  serializedVersion: 6
  m_Legacy: 1
  m_Compressed: 0
  m_UseHighQualityCurve: 1
  m_RotationCurves:
  - curve:
      serializedVersion: 2
      m_Curve:
      - time: 0
        value: {x: -0.0915131, y: 0.42762247, z: 0.0555657, w: 0.897595}
        inSlope: {x: 0.00023648141, y: 0.0038230417, z: 0.00039003787, w: -0.0018203257}
        outSlope: {x: 0.00023648141, y: 0.0038230417, z: 0.00039003787, w: -0.0018203257}
        tangentMode: -559038737
      - time: 0.8333332
        value: {x: -0.09135803, y: 0.43012047, z: 0.055820342, w: 0.8964007}
        inSlope: {x: 0.00013612224, y: 0.0021833202, z: 0.0002225118, w: -0.0010478507}
        outSlope: {x: 0.00013612224, y: 0.0021833202, z: 0.0002225118, w: -0.0010478507}
        tangentMode: -559038737
      - time: 1.6666658
        value: {x: -0.09128395, y: 0.43130863, z: 0.055941433, w: 0.89582956}
        inSlope: {x: 0.00004358594, y: 0.0006955869, z: 0.00007085509, w: -0.00033438238}
        outSlope: {x: 0.00004358594, y: 0.0006955869, z: 0.00007085509, w: -0.00033438238}
        tangentMode: -559038737
      - time: 2.4999983
        value: {x: -0.09128304, y: 0.43132335, z: 0.055942938, w: 0.8958225}
        inSlope: {x: -0.00003956262, y: -0.00063121377, z: -0.000064373075, w: 0.00030577212}
        outSlope: {x: -0.00003956262, y: -0.00063121377, z: -0.000064373075, w: 0.00030577212}
        tangentMode: -559038737
      - time: 3.3333309
        value: {x: -0.09134698, y: 0.43029863, z: 0.055838525, w: 0.8963151}
        inSlope: {x: -0.00011175882, y: -0.0017988699, z: -0.00018339622, w: 0.0008636721}
        outSlope: {x: -0.00011175882, y: -0.0017988699, z: -0.00018339622, w: 0.0008636721}
        tangentMode: -559038737
      - time: 4.1499987
        value: {x: -0.09146417, y: 0.4284136, z: 0.055646393, w: 0.89721763}
        inSlope: {x: -0.00017300018, y: -0.0027903542, z: -0.00028442213, w: 0.001330358}
        outSlope: {x: -0.00017300018, y: -0.0027903542, z: -0.00028442213, w: 0.001330358}
        tangentMode: -559038737
      - time: 4.966676
        value: {x: -0.09162694, y: 0.42578116, z: 0.055377997, w: 0.89846987}
        inSlope: {x: -0.00022373795, y: -0.0036316626, z: -0.00037025166, w: 0.0017237433}
        outSlope: {x: -0.00022373795, y: -0.0036316626, z: -0.00037025166, w: 0.0017237433}
        tangentMode: -559038737
      - time: 5.783354
        value: {x: -0.09182688, y: 0.42252505, z: 0.05504586, w: 0.90000576}
        inSlope: {x: -0.00026397055, y: -0.004319193, z: -0.0004406587, w: 0.0020259349}
        outSlope: {x: -0.00026397055, y: -0.004319193, z: -0.0004406587, w: 0.0020259349}
        tangentMode: -559038737
      - time: 6.6000314
        value: {x: -0.09205561, y: 0.4187689, z: 0.054662537, w: 0.9017596}
        inSlope: {x: -0.0002943685, y: -0.0048538395, z: -0.00049564324, w: 0.0022548137}
        outSlope: {x: -0.0002943685, y: -0.0048538395, z: -0.00049564324, w: 0.0022548137}
        tangentMode: -559038737
      - time: 7.416709
        value: {x: -0.092304856, y: 0.41463703, z: 0.05424061, w: 0.90366685}
        inSlope: {x: -0.0003142613, y: -0.0052382844, z: -0.00053487, w: 0.0024032271}
        outSlope: {x: -0.0003142613, y: -0.0052382844, z: -0.00053487, w: 0.0024032271}
        tangentMode: -559038737
      - time: 8.233379
        value: {x: -0.092566535, y: 0.41025466, z: 0.05379285, w: 0.90566486}
        inSlope: {x: -0.00032477576, y: -0.0054673194, z: -0.0005589138, w: 0.0024783988}
        outSlope: {x: -0.00032477576, y: -0.0054673194, z: -0.0005589138, w: 0.0024783988}
        tangentMode: -559038737
      - time: 9.0667
        value: {x: -0.092838205, y: 0.4056558, z: 0.05332266, w: 0.9077341}
        inSlope: {x: -0.00032566985, y: -0.0055424226, z: -0.0005669606, w: 0.0024766107}
        outSlope: {x: -0.00032566985, y: -0.0055424226, z: -0.0005669606, w: 0.0024766107}
        tangentMode: -559038737
      - time: 9.900021
        value: {x: -0.093106546, y: 0.4010628, z: 0.05285277, w: 0.9097727}
        inSlope: {x: -0.0003165055, y: -0.0054530143, z: -0.0005581315, w: 0.002403296}
        outSlope: {x: -0.0003165055, y: -0.0054530143, z: -0.0005581315, w: 0.002403296}
        tangentMode: -559038737
      - time: 10.733341
        value: {x: -0.09336373, y: 0.39661217, z: 0.052397154, w: 0.91172177}
        inSlope: {x: -0.00029884736, y: -0.0052017765, z: -0.0005325384, w: 0.0022602426}
        outSlope: {x: -0.00029884736, y: -0.0052017765, z: -0.0005325384, w: 0.0022602426}
        tangentMode: -559038737
      - time: 11.566662
        value: {x: -0.09360222, y: 0.39244157, z: 0.051969957, w: 0.9135246}
        inSlope: {x: -0.00027202486, y: -0.0047815577, z: -0.0004900694, w: 0.0020546035}
        outSlope: {x: -0.00027202486, y: -0.0047815577, z: -0.0004900694, w: 0.0020546035}
        tangentMode: -559038737
      - time: 12.399982
        value: {x: -0.0938147, y: 0.38868964, z: 0.051585432, w: 0.9151274}
        inSlope: {x: -0.00023648504, y: -0.004195933, z: -0.0004300541, w: 0.0017828022}
        outSlope: {x: -0.00023648504, y: -0.004195933, z: -0.0004300541, w: 0.0017828022}
        tangentMode: -559038737
      - time: 13.233303
        value: {x: -0.09399407, y: 0.38549566, z: 0.05125794, w: 0.91647744}
        inSlope: {x: -0.00019267495, y: -0.0034422209, z: -0.0003529394, w: 0.001448415}
        outSlope: {x: -0.00019267495, y: -0.0034422209, z: -0.0003529394, w: 0.001448415}
        tangentMode: -559038737
      - time: 14.066624
        value: {x: -0.09413328, y: 0.38299924, z: 0.05100187, w: 0.9175235}
        inSlope: {x: -0.00014014756, y: -0.0025204208, z: -0.0002586136, w: 0.0010550183}
        outSlope: {x: -0.00014014756, y: -0.0025204208, z: -0.0002586136, w: 0.0010550183}
        tangentMode: -559038737
      - time: 14.899944
        value: {x: -0.094225325, y: 0.38134018, z: 0.050831642, w: 0.9182142}
        inSlope: {x: -0.000079573416, y: -0.0014323215, z: -0.0001470767, w: 0.0005972477}
        outSlope: {x: -0.000079573416, y: -0.0014323215, z: -0.0001470767, w: 0.0005972477}
        tangentMode: -559038737
      - time: 15.733265
        value: {x: -0.0942631, y: 0.38065758, z: 0.0507616, w: 0.9184974}
        inSlope: {x: -0.000009834916, y: -0.00017524033, z: -0.000017993427, w: 0.00007331483}
        outSlope: {x: -0.000009834916, y: -0.00017524033, z: -0.000017993427, w: 0.00007331483}
        tangentMode: -559038737
      - time: 16.566586
        value: {x: -0.09423922, y: 0.3810897, z: 0.05080595, w: 0.9183182}
        inSlope: {x: 0.00006906793, y: 0.0012418817, z: 0.00012740688, w: -0.0005167802}
        outSlope: {x: 0.00006906793, y: 0.0012418817, z: 0.00012740688, w: -0.0005167802}
        tangentMode: -559038737
      - time: 17.399906
        value: {x: -0.094145924, y: 0.38277298, z: 0.050978683, w: 0.9176179}
        inSlope: {x: 0.00015691161, y: 0.0028244092, z: 0.00028979476, w: -0.0011801899}
        outSlope: {x: 0.00015691161, y: 0.0028244092, z: 0.00028979476, w: -0.0011801899}
        tangentMode: -559038737
      - time: 18.233227
        value: {x: -0.09397481, y: 0.38584155, z: 0.051293455, w: 0.9163318}
        inSlope: {x: 0.0002554843, y: 0.0045660837, z: 0.00046827615, w: -0.0019222791}
        outSlope: {x: 0.0002554843, y: 0.0045660837, z: 0.00046827615, w: -0.0019222791}
        tangentMode: -559038737
      - time: 19.066547
        value: {x: -0.09371675, y: 0.39042625, z: 0.0517635, w: 0.9143878}
        inSlope: {x: 0.00036568008, y: 0.0064624343, z: 0.000662404, w: -0.0027573528}
        outSlope: {x: 0.00036568008, y: 0.0064624343, z: 0.000662404, w: -0.0027573528}
        tangentMode: -559038737
      - time: 19.899868
        value: {x: -0.09336155, y: 0.39665344, z: 0.052401464, w: 0.9117038}
        inSlope: {x: 0.0004886165, y: 0.008507203, z: 0.00087128417, w: -0.0037015048}
        outSlope: {x: 0.0004886165, y: 0.008507203, z: 0.00087128417, w: -0.0037015048}
        tangentMode: -559038737
      - time: 20.733189
        value: {x: -0.0928978, y: 0.40464404, z: 0.053219277, w: 0.9081855}
        inSlope: {x: 0.00062652887, y: 0.010693237, z: 0.0010937992, w: -0.004765464}
        outSlope: {x: 0.00062652887, y: 0.010693237, z: 0.0010937992, w: -0.004765464}
        tangentMode: -559038737
      - time: 21.56651
        value: {x: -0.09231265, y: 0.41451177, z: 0.05422795, w: 0.9037244}
        inSlope: {x: 0.0007807582, y: 0.013010701, z: 0.0013290548, w: -0.0059671123}
        outSlope: {x: 0.0007807582, y: 0.013010701, z: 0.0013290548, w: -0.0059671123}
        tangentMode: -559038737
      - time: 22.39983
        value: {x: -0.0915915, y: 0.42636138, z: 0.05543733, w: 0.8981946}
        inSlope: {x: 0.00095331634, y: 0.015447078, z: 0.001575263, w: -0.007331483}
        outSlope: {x: 0.00095331634, y: 0.015447078, z: 0.001575263, w: -0.007331483}
        tangentMode: -559038737
      - time: 23.23315
        value: {x: -0.090717755, y: 0.44028652, z: 0.056855872, w: 0.8914513}
        inSlope: {x: 0.0011471089, y: 0.017988957, z: 0.0018307474, w: -0.0088854}
        outSlope: {x: 0.0011471089, y: 0.017988957, z: 0.0018307474, w: -0.0088854}
        tangentMode: -559038737
      - time: 24.066471
        value: {x: -0.08967268, y: 0.456367, z: 0.058490317, w: 0.8833271}
        inSlope: {x: 0.0013652652, y: 0.020618455, z: 0.002093049, w: -0.010652108}
        outSlope: {x: 0.0013652652, y: 0.020618455, z: 0.002093049, w: -0.010652108}
        tangentMode: -559038737
      - time: 24.899792
        value: {x: -0.08843502, y: 0.47466564, z: 0.060345307, w: 0.8736304}
        inSlope: {x: 0.001609797, y: 0.023308752, z: 0.002359374, w: -0.012663797}
        outSlope: {x: 0.001609797, y: 0.023308752, z: 0.002359374, w: -0.012663797}
        tangentMode: -559038737
      - time: 25.733112
        value: {x: -0.08698095, y: 0.49522427, z: 0.06242295, w: 0.862143}
        inSlope: {x: 0.0018851748, y: 0.026037496, z: 0.002626705, w: -0.014956226}
        outSlope: {x: 0.0018851748, y: 0.026037496, z: 0.002626705, w: -0.014956226}
        tangentMode: -559038737
      - time: 26.566433
        value: {x: -0.08528381, y: 0.5180597, z: 0.06472237, w: 0.84861755}
        inSlope: {x: 0.002193857, y: 0.028766237, z: 0.002890795, w: -0.017563373}
        outSlope: {x: 0.002193857, y: 0.028766237, z: 0.002890795, w: -0.017563373}
        tangentMode: -559038737
      - time: 27.399754
        value: {x: -0.082451545, y: 0.55371237, z: 0.06829389, w: 0.8257967}
        inSlope: {x: 0.0059467717, y: 0.07190576, z: 0.007179489, w: -0.048216127}
        outSlope: {x: 0.0059467717, y: 0.07190576, z: 0.007179489, w: -0.048216127}
        tangentMode: -559038737
      - time: 28.233074
        value: {x: -0.07512241, y: 0.6343851, z: 0.076281965, w: 0.76556724}
        inSlope: {x: 0.011559604, y: 0.11600731, z: 0.011383692, w: -0.09613363}
        outSlope: {x: 0.011559604, y: 0.11600731, z: 0.011383692, w: -0.09613363}
        tangentMode: -559038737
      - time: 29.066395
        value: {x: -0.0634211, y: 0.73750335, z: 0.08625589, w: 0.6668032}
        inSlope: {x: 0.016295116, y: 0.1259674, z: 0.01198094, w: -0.13932678}
        outSlope: {x: 0.016295116, y: 0.1259674, z: 0.01198094, w: -0.13932678}
        tangentMode: -559038737
      - time: 29.899715
        value: {x: -0.048525583, y: 0.8362591, z: 0.09543364, w: 0.53778094}
        inSlope: {x: 0.0190119, y: 0.10713622, z: 0.009667052, w: -0.16659454}
        outSlope: {x: 0.0190119, y: 0.10713622, z: 0.009667052, w: -0.16659454}
        tangentMode: -559038737
      - time: 30.733036
        value: {x: -0.032609645, y: 0.9116138, z: 0.10197511, w: 0.39685994}
        inSlope: {x: 0.018603526, y: 0.07239929, z: 0.0059492304, w: -0.16630754}
        outSlope: {x: 0.018603526, y: 0.07239929, z: 0.0059492304, w: -0.16630754}
        tangentMode: -559038737
      - time: 31.25
        value: {x: -0.02346346, y: 0.9431392, z: 0.104459465, w: 0.31468418}
        inSlope: {x: 0.016592782, y: 0.0502044, z: 0.003750843, w: -0.14979139}
        outSlope: {x: 0.016592782, y: 0.0502044, z: 0.003750843, w: -0.14979139}
        tangentMode: -559038737
      m_PreInfinity: 2
      m_PostInfinity: 2
      m_RotationOrder: 4
    path: 
  m_CompressedRotationCurves: []
  m_EulerCurves: []
  m_PositionCurves:
  - curve:
      serializedVersion: 2
      m_Curve:
      - time: 0
        value: {x: 382.25882, y: 140.7688, z: 946.46875}
        inSlope: {x: 0, y: 0, z: 0}
        outSlope: {x: 0, y: 0, z: 0}
        tangentMode: -559038737
      - time: 31.25
        value: {x: 382.25882, y: 140.7688, z: 946.46875}
        inSlope: {x: 0, y: 0, z: 0}
        outSlope: {x: 0, y: 0, z: 0}
        tangentMode: -559038737
      m_PreInfinity: 2
      m_PostInfinity: 2
      m_RotationOrder: 4
    path: 
  m_ScaleCurves:
  - curve:
      serializedVersion: 2
      m_Curve:
      - time: 0
        value: {x: 1, y: 1, z: 1}
        inSlope: {x: 0, y: 0, z: 0}
        outSlope: {x: 0, y: 0, z: 0}
        tangentMode: -559038737
      - time: 31.25
        value: {x: 1, y: 1, z: 1}
        inSlope: {x: 0, y: 0, z: 0}
        outSlope: {x: 0, y: 0, z: 0}
        tangentMode: -559038737
      m_PreInfinity: 2
      m_PostInfinity: 2
      m_RotationOrder: 4
    path: 
  m_FloatCurves: []
  m_PPtrCurves: []
  m_SampleRate: 60
  m_WrapMode: 0
  m_Bounds:
    m_Center: {x: 0, y: 0, z: 0}
    m_Extent: {x: 0, y: 0, z: 0}
  m_ClipBindingConstant:
    genericBindings: []
    pptrCurveMapping: []
  m_AnimationClipSettings:
    serializedVersion: 2
    m_AdditiveReferencePoseClip: {fileID: 0}
    m_AdditiveReferencePoseTime: 0
    m_StartTime: 0
    m_StopTime: 1
    m_OrientationOffsetY: 0
    m_Level: 0
    m_CycleOffset: 0
    m_HasAdditiveReferencePose: 0
    m_LoopTime: 0
    m_LoopBlend: 0
    m_LoopBlendOrientation: 0
    m_LoopBlendPositionY: 0
    m_LoopBlendPositionXZ: 0
    m_KeepOriginalOrientation: 0
    m_KeepOriginalPositionY: 1
    m_KeepOriginalPositionXZ: 0
    m_HeightFromFeet: 0
    m_Mirror: 0
  m_EditorCurves:
  - curve:
      serializedVersion: 2
      m_Curve:
      - time: 0
        value: 382.25882
        inSlope: 0
        outSlope: 0
        tangentMode: 10
      - time: 31.25
        value: 382.25882
        inSlope: 0
        outSlope: 0
        tangentMode: 10
      m_PreInfinity: 2
      m_PostInfinity: 2
      m_RotationOrder: 4
    attribute: m_LocalPosition.x
    path: 
    classID: 4
    script: {fileID: 0}
  - curve:
      serializedVersion: 2
      m_Curve:
      - time: 0
        value: 140.7688
        inSlope: 0
        outSlope: 0
        tangentMode: 10
      - time: 31.25
        value: 140.7688
        inSlope: 0
        outSlope: 0
        tangentMode: 10
      m_PreInfinity: 2
      m_PostInfinity: 2
      m_RotationOrder: 4
    attribute: m_LocalPosition.y
    path: 
    classID: 4
    script: {fileID: 0}
  - curve:
      serializedVersion: 2
      m_Curve:
      - time: 0
        value: 946.46875
        inSlope: 0
        outSlope: 0
        tangentMode: 10
      - time: 31.25
        value: 946.46875
        inSlope: 0
        outSlope: 0
        tangentMode: 10
      m_PreInfinity: 2
      m_PostInfinity: 2
      m_RotationOrder: 4
    attribute: m_LocalPosition.z
    path: 
    classID: 4
    script: {fileID: 0}
  - curve:
      serializedVersion: 2
      m_Curve:
      - time: 0
        value: 1
        inSlope: 0
        outSlope: 0
        tangentMode: 10
      - time: 31.25
        value: 1
        inSlope: 0
        outSlope: 0
        tangentMode: 10
      m_PreInfinity: 2
      m_PostInfinity: 2
      m_RotationOrder: 4
    attribute: m_LocalScale.z
    path: 
    classID: 4
    script: {fileID: 0}
  - curve:
      serializedVersion: 2
      m_Curve:
      - time: 0
        value: 1
        inSlope: 0
        outSlope: 0
        tangentMode: 10
      - time: 31.25
        value: 1
        inSlope: 0
        outSlope: 0
        tangentMode: 10
      m_PreInfinity: 2
      m_PostInfinity: 2
      m_RotationOrder: 4
    attribute: m_LocalScale.y
    path: 
    classID: 4
    script: {fileID: 0}
  - curve:
      serializedVersion: 2
      m_Curve:
      - time: 0
        value: 1
        inSlope: 0
        outSlope: 0
        tangentMode: 10
      - time: 31.25
        value: 1
        inSlope: 0
        outSlope: 0
        tangentMode: 10
      m_PreInfinity: 2
      m_PostInfinity: 2
      m_RotationOrder: 4
    attribute: m_LocalScale.x
    path: 
    classID: 4
    script: {fileID: 0}
  - curve:
      serializedVersion: 2
      m_Curve:
      - time: 0
        value: -0.0915131
        inSlope: 0.00023648141
        outSlope: 0.00023648141
        tangentMode: 0
      - time: 0.8333332
        value: -0.09135803
        inSlope: 0.00013612224
        outSlope: 0.00013612224
        tangentMode: 0
      - time: 1.6666658
        value: -0.09128395
        inSlope: 0.00004358594
        outSlope: 0.00004358594
        tangentMode: 0
      - time: 2.4999983
        value: -0.09128304
        inSlope: -0.00003956262
        outSlope: -0.00003956262
        tangentMode: 0
      - time: 3.3333309
        value: -0.09134698
        inSlope: -0.00011175882
        outSlope: -0.00011175882
        tangentMode: 0
      - time: 4.1499987
        value: -0.09146417
        inSlope: -0.00017300018
        outSlope: -0.00017300018
        tangentMode: 0
      - time: 4.966676
        value: -0.09162694
        inSlope: -0.00022373795
        outSlope: -0.00022373795
        tangentMode: 0
      - time: 5.783354
        value: -0.09182688
        inSlope: -0.00026397055
        outSlope: -0.00026397055
        tangentMode: 0
      - time: 6.6000314
        value: -0.09205561
        inSlope: -0.0002943685
        outSlope: -0.0002943685
        tangentMode: 0
      - time: 7.416709
        value: -0.092304856
        inSlope: -0.0003142613
        outSlope: -0.0003142613
        tangentMode: 0
      - time: 8.233379
        value: -0.092566535
        inSlope: -0.00032477576
        outSlope: -0.00032477576
        tangentMode: 0
      - time: 9.0667
        value: -0.092838205
        inSlope: -0.00032566985
        outSlope: -0.00032566985
        tangentMode: 0
      - time: 9.900021
        value: -0.093106546
        inSlope: -0.0003165055
        outSlope: -0.0003165055
        tangentMode: 0
      - time: 10.733341
        value: -0.09336373
        inSlope: -0.00029884736
        outSlope: -0.00029884736
        tangentMode: 0
      - time: 11.566662
        value: -0.09360222
        inSlope: -0.00027202486
        outSlope: -0.00027202486
        tangentMode: 0
      - time: 12.399982
        value: -0.0938147
        inSlope: -0.00023648504
        outSlope: -0.00023648504
        tangentMode: 0
      - time: 13.233303
        value: -0.09399407
        inSlope: -0.00019267495
        outSlope: -0.00019267495
        tangentMode: 0
      - time: 14.066624
        value: -0.09413328
        inSlope: -0.00014014756
        outSlope: -0.00014014756
        tangentMode: 0
      - time: 14.899944
        value: -0.094225325
        inSlope: -0.000079573416
        outSlope: -0.000079573416
        tangentMode: 0
      - time: 15.733265
        value: -0.0942631
        inSlope: -0.000009834916
        outSlope: -0.000009834916
        tangentMode: 0
      - time: 16.566586
        value: -0.09423922
        inSlope: 0.00006906793
        outSlope: 0.00006906793
        tangentMode: 0
      - time: 17.399906
        value: -0.094145924
        inSlope: 0.00015691161
        outSlope: 0.00015691161
        tangentMode: 0
      - time: 18.233227
        value: -0.09397481
        inSlope: 0.0002554843
        outSlope: 0.0002554843
        tangentMode: 0
      - time: 19.066547
        value: -0.09371675
        inSlope: 0.00036568008
        outSlope: 0.00036568008
        tangentMode: 0
      - time: 19.899868
        value: -0.09336155
        inSlope: 0.0004886165
        outSlope: 0.0004886165
        tangentMode: 0
      - time: 20.733189
        value: -0.0928978
        inSlope: 0.00062652887
        outSlope: 0.00062652887
        tangentMode: 0
      - time: 21.56651
        value: -0.09231265
        inSlope: 0.0007807582
        outSlope: 0.0007807582
        tangentMode: 0
      - time: 22.39983
        value: -0.0915915
        inSlope: 0.00095331634
        outSlope: 0.00095331634
        tangentMode: 0
      - time: 23.23315
        value: -0.090717755
        inSlope: 0.0011471089
        outSlope: 0.0011471089
        tangentMode: 0
      - time: 24.066471
        value: -0.08967268
        inSlope: 0.0013652652
        outSlope: 0.0013652652
        tangentMode: 0
      - time: 24.899792
        value: -0.08843502
        inSlope: 0.001609797
        outSlope: 0.001609797
        tangentMode: 0
      - time: 25.733112
        value: -0.08698095
        inSlope: 0.0018851748
        outSlope: 0.0018851748
        tangentMode: 0
      - time: 26.566433
        value: -0.08528381
        inSlope: 0.002193857
        outSlope: 0.002193857
        tangentMode: 0
      - time: 27.399754
        value: -0.082451545
        inSlope: 0.0059467717
        outSlope: 0.0059467717
        tangentMode: 0
      - time: 28.233074
        value: -0.07512241
        inSlope: 0.011559604
        outSlope: 0.011559604
        tangentMode: 0
      - time: 29.066395
        value: -0.0634211
        inSlope: 0.016295116
        outSlope: 0.016295116
        tangentMode: 0
      - time: 29.899715
        value: -0.048525583
        inSlope: 0.0190119
        outSlope: 0.0190119
        tangentMode: 0
      - time: 30.733036
        value: -0.032609645
        inSlope: 0.018603526
        outSlope: 0.018603526
        tangentMode: 0
      - time: 31.25
        value: -0.02346346
        inSlope: 0.016592782
        outSlope: 0.016592782
        tangentMode: 0
      m_PreInfinity: 2
      m_PostInfinity: 2
      m_RotationOrder: 4
    attribute: m_LocalRotation.x
    path: 
    classID: 4
    script: {fileID: 0}
  - curve:
      serializedVersion: 2
      m_Curve:
      - time: 0
        value: 0.42762247
        inSlope: 0.0038230417
        outSlope: 0.0038230417
        tangentMode: 0
      - time: 0.8333332
        value: 0.43012047
        inSlope: 0.0021833202
        outSlope: 0.0021833202
        tangentMode: 0
      - time: 1.6666658
        value: 0.43130863
        inSlope: 0.0006955869
        outSlope: 0.0006955869
        tangentMode: 0
      - time: 2.4999983
        value: 0.43132335
        inSlope: -0.00063121377
        outSlope: -0.00063121377
        tangentMode: 0
      - time: 3.3333309
        value: 0.43029863
        inSlope: -0.0017988699
        outSlope: -0.0017988699
        tangentMode: 0
      - time: 4.1499987
        value: 0.4284136
        inSlope: -0.0027903542
        outSlope: -0.0027903542
        tangentMode: 0
      - time: 4.966676
        value: 0.42578116
        inSlope: -0.0036316626
        outSlope: -0.0036316626
        tangentMode: 0
      - time: 5.783354
        value: 0.42252505
        inSlope: -0.004319193
        outSlope: -0.004319193
        tangentMode: 0
      - time: 6.6000314
        value: 0.4187689
        inSlope: -0.0048538395
        outSlope: -0.0048538395
        tangentMode: 0
      - time: 7.416709
        value: 0.41463703
        inSlope: -0.0052382844
        outSlope: -0.0052382844
        tangentMode: 0
      - time: 8.233379
        value: 0.41025466
        inSlope: -0.0054673194
        outSlope: -0.0054673194
        tangentMode: 0
      - time: 9.0667
        value: 0.4056558
        inSlope: -0.0055424226
        outSlope: -0.0055424226
        tangentMode: 0
      - time: 9.900021
        value: 0.4010628
        inSlope: -0.0054530143
        outSlope: -0.0054530143
        tangentMode: 0
      - time: 10.733341
        value: 0.39661217
        inSlope: -0.0052017765
        outSlope: -0.0052017765
        tangentMode: 0
      - time: 11.566662
        value: 0.39244157
        inSlope: -0.0047815577
        outSlope: -0.0047815577
        tangentMode: 0
      - time: 12.399982
        value: 0.38868964
        inSlope: -0.004195933
        outSlope: -0.004195933
        tangentMode: 0
      - time: 13.233303
        value: 0.38549566
        inSlope: -0.0034422209
        outSlope: -0.0034422209
        tangentMode: 0
      - time: 14.066624
        value: 0.38299924
        inSlope: -0.0025204208
        outSlope: -0.0025204208
        tangentMode: 0
      - time: 14.899944
        value: 0.38134018
        inSlope: -0.0014323215
        outSlope: -0.0014323215
        tangentMode: 0
      - time: 15.733265
        value: 0.38065758
        inSlope: -0.00017524033
        outSlope: -0.00017524033
        tangentMode: 0
      - time: 16.566586
        value: 0.3810897
        inSlope: 0.0012418817
        outSlope: 0.0012418817
        tangentMode: 0
      - time: 17.399906
        value: 0.38277298
        inSlope: 0.0028244092
        outSlope: 0.0028244092
        tangentMode: 0
      - time: 18.233227
        value: 0.38584155
        inSlope: 0.0045660837
        outSlope: 0.0045660837
        tangentMode: 0
      - time: 19.066547
        value: 0.39042625
        inSlope: 0.0064624343
        outSlope: 0.0064624343
        tangentMode: 0
      - time: 19.899868
        value: 0.39665344
        inSlope: 0.008507203
        outSlope: 0.008507203
        tangentMode: 0
      - time: 20.733189
        value: 0.40464404
        inSlope: 0.010693237
        outSlope: 0.010693237
        tangentMode: 0
      - time: 21.56651
        value: 0.41451177
        inSlope: 0.013010701
        outSlope: 0.013010701
        tangentMode: 0
      - time: 22.39983
        value: 0.42636138
        inSlope: 0.015447078
        outSlope: 0.015447078
        tangentMode: 0
      - time: 23.23315
        value: 0.44028652
        inSlope: 0.017988957
        outSlope: 0.017988957
        tangentMode: 0
      - time: 24.066471
        value: 0.456367
        inSlope: 0.020618455
        outSlope: 0.020618455
        tangentMode: 0
      - time: 24.899792
        value: 0.47466564
        inSlope: 0.023308752
        outSlope: 0.023308752
        tangentMode: 0
      - time: 25.733112
        value: 0.49522427
        inSlope: 0.026037496
        outSlope: 0.026037496
        tangentMode: 0
      - time: 26.566433
        value: 0.5180597
        inSlope: 0.028766237
        outSlope: 0.028766237
        tangentMode: 0
      - time: 27.399754
        value: 0.55371237
        inSlope: 0.07190576
        outSlope: 0.07190576
        tangentMode: 0
      - time: 28.233074
        value: 0.6343851
        inSlope: 0.11600731
        outSlope: 0.11600731
        tangentMode: 0
      - time: 29.066395
        value: 0.73750335
        inSlope: 0.1259674
        outSlope: 0.1259674
        tangentMode: 0
      - time: 29.899715
        value: 0.8362591
        inSlope: 0.10713622
        outSlope: 0.10713622
        tangentMode: 0
      - time: 30.733036
        value: 0.9116138
        inSlope: 0.07239929
        outSlope: 0.07239929
        tangentMode: 0
      - time: 31.25
        value: 0.9431392
        inSlope: 0.0502044
        outSlope: 0.0502044
        tangentMode: 0
      m_PreInfinity: 2
      m_PostInfinity: 2
      m_RotationOrder: 4
    attribute: m_LocalRotation.y
    path: 
    classID: 4
    script: {fileID: 0}
  - curve:
      serializedVersion: 2
      m_Curve:
      - time: 0
        value: 0.0555657
        inSlope: 0.00039003787
        outSlope: 0.00039003787
        tangentMode: 0
      - time: 0.8333332
        value: 0.055820342
        inSlope: 0.0002225118
        outSlope: 0.0002225118
        tangentMode: 0
      - time: 1.6666658
        value: 0.055941433
        inSlope: 0.00007085509
        outSlope: 0.00007085509
        tangentMode: 0
      - time: 2.4999983
        value: 0.055942938
        inSlope: -0.000064373075
        outSlope: -0.000064373075
        tangentMode: 0
      - time: 3.3333309
        value: 0.055838525
        inSlope: -0.00018339622
        outSlope: -0.00018339622
        tangentMode: 0
      - time: 4.1499987
        value: 0.055646393
        inSlope: -0.00028442213
        outSlope: -0.00028442213
        tangentMode: 0
      - time: 4.966676
        value: 0.055377997
        inSlope: -0.00037025166
        outSlope: -0.00037025166
        tangentMode: 0
      - time: 5.783354
        value: 0.05504586
        inSlope: -0.0004406587
        outSlope: -0.0004406587
        tangentMode: 0
      - time: 6.6000314
        value: 0.054662537
        inSlope: -0.00049564324
        outSlope: -0.00049564324
        tangentMode: 0
      - time: 7.416709
        value: 0.05424061
        inSlope: -0.00053487
        outSlope: -0.00053487
        tangentMode: 0
      - time: 8.233379
        value: 0.05379285
        inSlope: -0.0005589138
        outSlope: -0.0005589138
        tangentMode: 0
      - time: 9.0667
        value: 0.05332266
        inSlope: -0.0005669606
        outSlope: -0.0005669606
        tangentMode: 0
      - time: 9.900021
        value: 0.05285277
        inSlope: -0.0005581315
        outSlope: -0.0005581315
        tangentMode: 0
      - time: 10.733341
        value: 0.052397154
        inSlope: -0.0005325384
        outSlope: -0.0005325384
        tangentMode: 0
      - time: 11.566662
        value: 0.051969957
        inSlope: -0.0004900694
        outSlope: -0.0004900694
        tangentMode: 0
      - time: 12.399982
        value: 0.051585432
        inSlope: -0.0004300541
        outSlope: -0.0004300541
        tangentMode: 0
      - time: 13.233303
        value: 0.05125794
        inSlope: -0.0003529394
        outSlope: -0.0003529394
        tangentMode: 0
      - time: 14.066624
        value: 0.05100187
        inSlope: -0.0002586136
        outSlope: -0.0002586136
        tangentMode: 0
      - time: 14.899944
        value: 0.050831642
        inSlope: -0.0001470767
        outSlope: -0.0001470767
        tangentMode: 0
      - time: 15.733265
        value: 0.0507616
        inSlope: -0.000017993427
        outSlope: -0.000017993427
        tangentMode: 0
      - time: 16.566586
        value: 0.05080595
        inSlope: 0.00012740688
        outSlope: 0.00012740688
        tangentMode: 0
      - time: 17.399906
        value: 0.050978683
        inSlope: 0.00028979476
        outSlope: 0.00028979476
        tangentMode: 0
      - time: 18.233227
        value: 0.051293455
        inSlope: 0.00046827615
        outSlope: 0.00046827615
        tangentMode: 0
      - time: 19.066547
        value: 0.0517635
        inSlope: 0.000662404
        outSlope: 0.000662404
        tangentMode: 0
      - time: 19.899868
        value: 0.052401464
        inSlope: 0.00087128417
        outSlope: 0.00087128417
        tangentMode: 0
      - time: 20.733189
        value: 0.053219277
        inSlope: 0.0010937992
        outSlope: 0.0010937992
        tangentMode: 0
      - time: 21.56651
        value: 0.05422795
        inSlope: 0.0013290548
        outSlope: 0.0013290548
        tangentMode: 0
      - time: 22.39983
        value: 0.05543733
        inSlope: 0.001575263
        outSlope: 0.001575263
        tangentMode: 0
      - time: 23.23315
        value: 0.056855872
        inSlope: 0.0018307474
        outSlope: 0.0018307474
        tangentMode: 0
      - time: 24.066471
        value: 0.058490317
        inSlope: 0.002093049
        outSlope: 0.002093049
        tangentMode: 0
      - time: 24.899792
        value: 0.060345307
        inSlope: 0.002359374
        outSlope: 0.002359374
        tangentMode: 0
      - time: 25.733112
        value: 0.06242295
        inSlope: 0.002626705
        outSlope: 0.002626705
        tangentMode: 0
      - time: 26.566433
        value: 0.06472237
        inSlope: 0.002890795
        outSlope: 0.002890795
        tangentMode: 0
      - time: 27.399754
        value: 0.06829389
        inSlope: 0.007179489
        outSlope: 0.007179489
        tangentMode: 0
      - time: 28.233074
        value: 0.076281965
        inSlope: 0.011383692
        outSlope: 0.011383692
        tangentMode: 0
      - time: 29.066395
        value: 0.08625589
        inSlope: 0.01198094
        outSlope: 0.01198094
        tangentMode: 0
      - time: 29.899715
        value: 0.09543364
        inSlope: 0.009667052
        outSlope: 0.009667052
        tangentMode: 0
      - time: 30.733036
        value: 0.10197511
        inSlope: 0.0059492304
        outSlope: 0.0059492304
        tangentMode: 0
      - time: 31.25
        value: 0.104459465
        inSlope: 0.003750843
        outSlope: 0.003750843
        tangentMode: 0
      m_PreInfinity: 2
      m_PostInfinity: 2
      m_RotationOrder: 4
    attribute: m_LocalRotation.z
    path: 
    classID: 4
    script: {fileID: 0}
  - curve:
      serializedVersion: 2
      m_Curve:
      - time: 0
        value: 0.897595
        inSlope: -0.0018203257
        outSlope: -0.0018203257
        tangentMode: 0
      - time: 0.8333332
        value: 0.8964007
        inSlope: -0.0010478507
        outSlope: -0.0010478507
        tangentMode: 0
      - time: 1.6666658
        value: 0.89582956
        inSlope: -0.00033438238
        outSlope: -0.00033438238
        tangentMode: 0
      - time: 2.4999983
        value: 0.8958225
        inSlope: 0.00030577212
        outSlope: 0.00030577212
        tangentMode: 0
      - time: 3.3333309
        value: 0.8963151
        inSlope: 0.0008636721
        outSlope: 0.0008636721
        tangentMode: 0
      - time: 4.1499987
        value: 0.89721763
        inSlope: 0.001330358
        outSlope: 0.001330358
        tangentMode: 0
      - time: 4.966676
        value: 0.89846987
        inSlope: 0.0017237433
        outSlope: 0.0017237433
        tangentMode: 0
      - time: 5.783354
        value: 0.90000576
        inSlope: 0.0020259349
        outSlope: 0.0020259349
        tangentMode: 0
      - time: 6.6000314
        value: 0.9017596
        inSlope: 0.0022548137
        outSlope: 0.0022548137
        tangentMode: 0
      - time: 7.416709
        value: 0.90366685
        inSlope: 0.0024032271
        outSlope: 0.0024032271
        tangentMode: 0
      - time: 8.233379
        value: 0.90566486
        inSlope: 0.0024783988
        outSlope: 0.0024783988
        tangentMode: 0
      - time: 9.0667
        value: 0.9077341
        inSlope: 0.0024766107
        outSlope: 0.0024766107
        tangentMode: 0
      - time: 9.900021
        value: 0.9097727
        inSlope: 0.002403296
        outSlope: 0.002403296
        tangentMode: 0
      - time: 10.733341
        value: 0.91172177
        inSlope: 0.0022602426
        outSlope: 0.0022602426
        tangentMode: 0
      - time: 11.566662
        value: 0.9135246
        inSlope: 0.0020546035
        outSlope: 0.0020546035
        tangentMode: 0
      - time: 12.399982
        value: 0.9151274
        inSlope: 0.0017828022
        outSlope: 0.0017828022
        tangentMode: 0
      - time: 13.233303
        value: 0.91647744
        inSlope: 0.001448415
        outSlope: 0.001448415
        tangentMode: 0
      - time: 14.066624
        value: 0.9175235
        inSlope: 0.0010550183
        outSlope: 0.0010550183
        tangentMode: 0
      - time: 14.899944
        value: 0.9182142
        inSlope: 0.0005972477
        outSlope: 0.0005972477
        tangentMode: 0
      - time: 15.733265
        value: 0.9184974
        inSlope: 0.00007331483
        outSlope: 0.00007331483
        tangentMode: 0
      - time: 16.566586
        value: 0.9183182
        inSlope: -0.0005167802
        outSlope: -0.0005167802
        tangentMode: 0
      - time: 17.399906
        value: 0.9176179
        inSlope: -0.0011801899
        outSlope: -0.0011801899
        tangentMode: 0
      - time: 18.233227
        value: 0.9163318
        inSlope: -0.0019222791
        outSlope: -0.0019222791
        tangentMode: 0
      - time: 19.066547
        value: 0.9143878
        inSlope: -0.0027573528
        outSlope: -0.0027573528
        tangentMode: 0
      - time: 19.899868
        value: 0.9117038
        inSlope: -0.0037015048
        outSlope: -0.0037015048
        tangentMode: 0
      - time: 20.733189
        value: 0.9081855
        inSlope: -0.004765464
        outSlope: -0.004765464
        tangentMode: 0
      - time: 21.56651
        value: 0.9037244
        inSlope: -0.0059671123
        outSlope: -0.0059671123
        tangentMode: 0
      - time: 22.39983
        value: 0.8981946
        inSlope: -0.007331483
        outSlope: -0.007331483
        tangentMode: 0
      - time: 23.23315
        value: 0.8914513
        inSlope: -0.0088854
        outSlope: -0.0088854
        tangentMode: 0
      - time: 24.066471
        value: 0.8833271
        inSlope: -0.010652108
        outSlope: -0.010652108
        tangentMode: 0
      - time: 24.899792
        value: 0.8736304
        inSlope: -0.012663797
        outSlope: -0.012663797
        tangentMode: 0
      - time: 25.733112
        value: 0.862143
        inSlope: -0.014956226
        outSlope: -0.014956226
        tangentMode: 0
      - time: 26.566433
        value: 0.84861755
        inSlope: -0.017563373
        outSlope: -0.017563373
        tangentMode: 0
      - time: 27.399754
        value: 0.8257967
        inSlope: -0.048216127
        outSlope: -0.048216127
        tangentMode: 0
      - time: 28.233074
        value: 0.76556724
        inSlope: -0.09613363
        outSlope: -0.09613363
        tangentMode: 0
      - time: 29.066395
        value: 0.6668032
        inSlope: -0.13932678
        outSlope: -0.13932678
        tangentMode: 0
      - time: 29.899715
        value: 0.53778094
        inSlope: -0.16659454
        outSlope: -0.16659454
        tangentMode: 0
      - time: 30.733036
        value: 0.39685994
        inSlope: -0.16630754
        outSlope: -0.16630754
        tangentMode: 0
      - time: 31.25
        value: 0.31468418
        inSlope: -0.14979139
        outSlope: -0.14979139
        tangentMode: 0
      m_PreInfinity: 2
      m_PostInfinity: 2
      m_RotationOrder: 4
    attribute: m_LocalRotation.w
    path: 
    classID: 4
    script: {fileID: 0}
  m_EulerEditorCurves:
  - curve:
      serializedVersion: 2
      m_Curve:
      - time: 0
        value: -12.228192
        inSlope: -0.00000233987
        outSlope: -0.00000233987
        tangentMode: 10
      - time: 26.900002
        value: -12.228255
        inSlope: -0.000001169935
        outSlope: -0.000001169935
        tangentMode: 10
      - time: 31.25
        value: -12.228255
        inSlope: 0
        outSlope: 0
        tangentMode: 10
      m_PreInfinity: 2
      m_PostInfinity: 2
      m_RotationOrder: 4
    attribute: localEulerAnglesBaked.x
    path: 
    classID: 4
    script: {fileID: 0}
  - curve:
      serializedVersion: 2
      m_Curve:
      - time: 0
        value: 50.812176
        inSlope: 0.49010447
        outSlope: 0.49010447
        tangentMode: 10
      - time: 26.900002
        value: 63.995987
        inSlope: 4.0598726
        outSlope: 4.0598726
        tangentMode: 0
      - time: 31.25
        value: 142.96187
        inSlope: 18.153082
        outSlope: 18.153082
        tangentMode: 10
      m_PreInfinity: 2
      m_PostInfinity: 2
      m_RotationOrder: 4
    attribute: localEulerAnglesBaked.y
    path: 
    classID: 4
    script: {fileID: 0}
  - curve:
      serializedVersion: 2
      m_Curve:
      - time: 0
        value: 1.2596716
        inSlope: 0
        outSlope: 0
        tangentMode: 10
      - time: 26.900002
        value: 1.2596716
        inSlope: 0
        outSlope: 0
        tangentMode: 10
      - time: 31.25
        value: 1.2596716
        inSlope: 0
        outSlope: 0
        tangentMode: 10
      m_PreInfinity: 2
      m_PostInfinity: 2
      m_RotationOrder: 4
    attribute: localEulerAnglesBaked.z
    path: 
    classID: 4
    script: {fileID: 0}
  m_HasGenericRootTransform: 0
  m_HasMotionFloatCurves: 0
  m_GenerateMotionCurves: 0
  m_Events: []
