%YAML 1.1
%TAG !u! tag:unity3d.com,2011:
--- !u!21 &2100000
Material:
  serializedVersion: 6
  m_ObjectHideFlags: 0
  m_PrefabParentObject: {fileID: 0}
  m_PrefabInternal: {fileID: 0}
  m_Name: Branch3
  m_Shader: {fileID: 10601, guid: 0000000000000000f000000000000000, type: 0}
  m_ShaderKeywords: 
  m_LightmapFlags: 5
  m_CustomRenderQueue: -1
  stringTagMap: {}
  m_SavedProperties:
    serializedVersion: 2
    m_TexEnvs:
    - first:
        name: _BumpMap
      second:
        m_Texture: {fileID: 2800000, guid: a5ea9ad0725485047bc3149abb2ff0f6, type: 3}
        m_Scale: {x: 1, y: 1}
        m_Offset: {x: 0, y: 0}
    - first:
        name: _GlossMap
      second:
        m_Texture: {fileID: 2800000, guid: baf4762b0a8511e478b4815ffbfb2345, type: 3}
        m_Scale: {x: 1, y: 1}
        m_Offset: {x: 0, y: 0}
    - first:
        name: _MainTex
      second:
        m_Texture: {fileID: 2800000, guid: 8f0a009a080a4d4479a2314764b2cddd, type: 3}
        m_Scale: {x: 1, y: 1}
        m_Offset: {x: 0, y: 0}
    - first:
        name: _ShadowOffset
      second:
        m_Texture: {fileID: 0}
        m_Scale: {x: 1, y: 1}
        m_Offset: {x: 0, y: 0}
    - first:
        name: _TranslucencyMap
      second:
        m_Texture: {fileID: 2800000, guid: 40d3217e6c43db64f90a53d1e59d7544, type: 3}
        m_Scale: {x: 1, y: 1}
        m_Offset: {x: 0, y: 0}
    m_Floats:
    - first:
        name: _AO
      second: 2.4
    - first:
        name: _BaseLight
      second: 0.35
    - first:
        name: _Cutoff
      second: 0.3
    - first:
        name: _Occlusion
      second: 7.5
    - first:
        name: _ShadowStrength
      second: 1
    - first:
        name: _Shininess
      second: 0.078125
    - first:
        name: _SquashAmount
      second: 1
    - first:
        name: _TranslucencyViewDependency
      second: 0.7
    m_Colors:
    - first:
        name: _Color
      second: {r: 1, g: 1, b: 1, a: 1}
    - first:
        name: _Scale
      second: {r: 1, g: 1, b: 1, a: 1}
    - first:
        name: _TranslucencyColor
      second: {r: 0.73, g: 0.85, b: 0.41, a: 1}
